Izvajanje test-A
  Log datoteka: test-A.log
  Izhod programa: test-A.out
  Ukazna vrstica: bash Naloga0.sh 
  Izhodni status: 1
  Realni cas izvajanja: 8
  Uporabniski cas izvajanja: 4
  Sistemski cas izvajanja: 4
  Procesorski cas izvajanja: 8
Preverjanje test-A
  Izhodni status: ok
  Standardni izhod: ok
  Tocke: 1
