This is BibTeX, Version 0.99d (TeX Live 2019/Debian)
Capacity: max_strings=200000, hash_size=200000, hash_prime=170003
The top-level auxiliary file: 9naloga.aux
The style file: plain.bst
Database file #1: literatura.bib
You've used 3 entries,
            2118 wiz_defined-function locations,
            510 strings with 4285 characters,
and the built_in function-call counts, 695 in all, are:
= -- 66
> -- 27
< -- 0
+ -- 11
- -- 8
* -- 21
:= -- 123
add.period$ -- 12
call.type$ -- 3
change.case$ -- 13
chr.to.int$ -- 0
cite$ -- 3
duplicate$ -- 21
empty$ -- 67
format.name$ -- 8
if$ -- 149
int.to.chr$ -- 0
int.to.str$ -- 3
missing$ -- 0
newline$ -- 21
num.names$ -- 6
pop$ -- 31
preamble$ -- 1
purify$ -- 10
quote$ -- 0
skip$ -- 16
stack$ -- 0
substring$ -- 15
swap$ -- 3
text.length$ -- 0
text.prefix$ -- 0
top$ -- 0
type$ -- 12
warning$ -- 0
while$ -- 6
width$ -- 4
write$ -- 35
