	n	|	linearno	|	dvojisko	|
-----------------------------------------------------------------
	n	|	linearno	|	dvojisko	|
-----------------------------------------------------------------
	1000	|	1584309	|	13597	|
	2000	|	62787	|	8628	|
	3000	|	150448	|	8694	|
	4000	|	105044	|	9072	|
	5000	|	172068	|	9346	|
	6000	|	157610	|	9729	|
	7000	|	14147	|	10147	|
	8000	|	197552	|	10738	|
	9000	|	172334	|	10553	|
	10000	|	119691	|	11762	|
	11000	|	690107	|	13266	|
	12000	|	627649	|	14689	|
	13000	|	376946	|	14202	|
	14000	|	255248	|	11445	|
	15000	|	378351	|	11164	|
	16000	|	366095	|	11213	|
	17000	|	34741	|	13077	|
	18000	|	601981	|	10893	|
	19000	|	155292	|	11585	|
	20000	|	241183	|	14935	|
	21000	|	39345	|	17935	|
	22000	|	132976	|	13176	|
	23000	|	283480	|	66963	|
	24000	|	237755	|	7430	|
	25000	|	109217	|	7831	|
	26000	|	280040	|	7306	|
	27000	|	317145	|	7913	|
	28000	|	10362	|	7448	|
	29000	|	348495	|	8649	|
	30000	|	236596	|	7908	|
	31000	|	406920	|	7805	|
	32000	|	375767	|	17960	|
	33000	|	664760	|	11053	|
	34000	|	346188	|	12820	|
	35000	|	26898	|	7757	|
	36000	|	12292	|	7558	|
	37000	|	324539	|	17402	|
	38000	|	251686	|	9609	|
	39000	|	217672	|	7668	|
	40000	|	247581	|	8852	|
	41000	|	219088	|	8624	|
	42000	|	238886	|	9296	|
	43000	|	229807	|	8061	|
	44000	|	239496	|	8865	|
	45000	|	23429	|	7890	|
	46000	|	19905	|	8312	|
	47000	|	11621	|	7541	|
	48000	|	22730	|	7945	|
	49000	|	49401	|	7754	|
	50000	|	41236	|	7964	|
	51000	|	51392	|	8617	|
	52000	|	32363	|	8402	|
	53000	|	47796	|	8110	|
	54000	|	28309	|	8439	|
	55000	|	17070	|	7733	|
	56000	|	35151	|	8010	|
	57000	|	47799	|	8346	|
	58000	|	29129	|	9500	|
	59000	|	50247	|	8149	|
	60000	|	52154	|	8170	|
	61000	|	17283	|	8728	|
	62000	|	49193	|	7941	|
	63000	|	37914	|	8246	|
	64000	|	14351	|	38859	|
	65000	|	27363	|	10079	|
	66000	|	31536	|	7579	|
	67000	|	72209	|	6394	|
	68000	|	34448	|	9819	|
	69000	|	70582	|	6076	|
	70000	|	43775	|	6398	|
	71000	|	42804	|	6775	|
	72000	|	56789	|	6229	|
	73000	|	64831	|	13811	|
	74000	|	33349	|	6171	|
	75000	|	45405	|	6473	|
	76000	|	38908	|	5323	|
	77000	|	68421	|	5621	|
	78000	|	33562	|	4341	|
	79000	|	21951	|	5216	|
	80000	|	13043	|	5257	|
	81000	|	53048	|	5113	|
	82000	|	52237	|	5583	|
	83000	|	39661	|	5740	|
	84000	|	60513	|	5830	|
	85000	|	30266	|	5161	|
	86000	|	63658	|	6157	|
	87000	|	79708	|	9301	|
	88000	|	12061	|	5023	|
	89000	|	22030	|	4531	|
	90000	|	78111	|	5882	|
	91000	|	39992	|	5295	|
	92000	|	17071	|	5250	|
	93000	|	76042	|	9809	|
	94000	|	78514	|	5441	|
	95000	|	11263	|	5357	|
	96000	|	77876	|	5632	|
	97000	|	127500	|	11286	|
	98000	|	66196	|	8946	|
	99000	|	64696	|	9445	|
	100000	|	57518	|	5365	|
