Izvajanje test-C
  Log datoteka: test-C.log
  Izhod programa: test-C.out
  Ukazna vrstica: ./Naloga2 names /home/test/tests/proc-test
  Izhodni status: 0
  Realni cas izvajanja: 6
  Uporabniski cas izvajanja: 1
  Sistemski cas izvajanja: 5
  Procesorski cas izvajanja: 6
Preverjanje test-C
  Izhodni status: ok
  Standardni izhod: err
  Tocke: 0
