Izvajanje test-C
  Log datoteka: test-C.log
  Izhod programa: test-C.out
  Ukazna vrstica: bash Naloga1.sh fib 0 1 2 3 4 5 8 10 15 20 22 30 36 40 42 50 59 60 70 80 90
  Izhodni status: 0
  Realni cas izvajanja: 32
  Uporabniski cas izvajanja: 27
  Sistemski cas izvajanja: 5
  Procesorski cas izvajanja: 32
Preverjanje test-C
  Izhodni status: ok
  Standardni izhod: ok
  Tocke: 1
