Izvajanje test-G
  Log datoteka: test-G.log
  Izhod programa: test-G.out
  Ukazna vrstica: ./Naloga2 psext /home/test/tests/proc-test 30973
  Izhodni status: 1
  Realni cas izvajanja: 4
  Uporabniski cas izvajanja: 2
  Sistemski cas izvajanja: 3
  Procesorski cas izvajanja: 5
Preverjanje test-G
  Izhodni status: err
  Tocke: 0
