Izvajanje test-I
  Log datoteka: test-I.log
  Izhod programa: test-I.out
  Ukazna vrstica: ./Naloga2 forktree
  Izhodni status: 0
  Realni cas izvajanja: 4
  Uporabniski cas izvajanja: 2
  Sistemski cas izvajanja: 2
  Procesorski cas izvajanja: 4
Preverjanje test-I
  Izhodni status: ok
  Standardni izhod: err
  Tocke: 0
