Izvajanje test-A
  Log datoteka: test-A.log
  Izhod programa: test-A.out
  Ukazna vrstica: bash Naloga1.sh status 15086 34466
  Izhodni status: 137
  Realni cas izvajanja: 1007
  Uporabniski cas izvajanja: 997
  Sistemski cas izvajanja: 6
  Procesorski cas izvajanja: 1003
Preverjanje test-A
  Izhodni status: err
  Tocke: 0
