47
24,271,197,93,212,NULL,NULL,NULL,NULL,269
4,268,27,7,82,155,66,198,NULL,NULL
40,161,50,145,250,NULL,NULL,NULL,NULL,NULL
196,16,149,44,177,32,NULL,NULL,NULL,NULL
26,181,NULL,NULL,220,64,NULL,NULL,NULL,NULL
5,21,236,49,103,230,NULL,NULL,NULL,NULL
,NULL,220,208,95,193,NULL,NULL,NULL,NULL,NULL
253,271,160,272,261,218,NULL,NULL,26,89
32,12,68,92,235,NULL,122,NULL,126,NULL
38,163,25,249,6,NULL,NULL,NULL,NULL,NULL
288,242,4,102,NULL,29,NULL,NULL,36,262
88,223,191,153,190,224,278,NULL,NULL,NULL
14,48,118,219,41,NULL,NULL,NULL,244,NULL
107,268,129,225,2,234,118,67,45,NULL
18,1,NULL,29,139,NULL,NULL,NULL,27,33
79,148,46,248,9,82,NULL,NULL,NULL,NULL
220,47,146,251,136,22,NULL,NULL,NULL,NULL
34,300,NULL,NULL,156,NULL,NULL,NULL,130,192
158,NULL,NULL,176,244,157,143,NULL,NULL,NULL
,NULL,266,237,265,232,282,NULL,NULL,NULL,NULL
83,47,293,134,69,171,86,171,NULL,NULL
100,138,114,115,202,281,NULL,NULL,198,NULL
170,77,164,NULL,273,132,283,NULL,NULL,NULL
230,65,NULL,NULL,133,63,NULL,NULL,NULL,241
277,74,10,259,NULL,NULL,NULL,NULL,217,189
242,116,299,94,163,211,NULL,NULL,NULL,NULL
154,245,155,NULL,279,NULL,NULL,NULL,213,NULL
71,9,54,221,286,189,209,NULL,NULL,NULL
19,131,129,213,126,295,8,165,NULL,NULL
210,25,287,75,258,180,39,11,NULL,NULL
175,119,216,205,3,NULL,NULL,NULL,172,62
52,289,61,264,NULL,187,NULL,NULL,111,137
253,97,259,203,NULL,NULL,NULL,NULL,NULL,NULL
115,256,NULL,72,147,176,31,NULL,NULL,NULL
169,125,291,229,5,227,274,NULL,284,228
80,260,231,174,207,NULL,NULL,NULL,NULL,NULL
98,87,99,NULL,161,NULL,NULL,NULL,NULL,164
90,101,37,123,109,60,NULL,NULL,NULL,NULL
141,135,151,95,83,298,28,76,NULL,43
276,263,179,NULL,150,NULL,NULL,NULL,NULL,NULL
2,96,292,125,NULL,NULL,NULL,NULL,NULL,NULL
123,91,199,280,113,294,NULL,NULL,NULL,NULL
221,58,35,NULL,142,NULL,NULL,NULL,201,81
172,268,252,151,NULL,NULL,NULL,NULL,NULL,NULL
194,NULL,185,140,NULL,NULL,NULL,NULL,296,NULL
122,263,270,218,255,196,243,42,NULL,NULL
173,120,159,214,152,127,110,198,NULL,NULL
