{"metric": "Min Latency", "value": 1.604, "unit": "ms", "timestamp": 1584891022.341256, "test": "ping", "product_name": "PerfKitBenchmarker", "official": false, "owner": "tom", "run_uri": "feba8f72-b090fa9f-2082-42b7-ac59-948012e52e02", "sample_uri": "c6b90405-608e-4386-9857-146134885332", "labels": "|ip_type:internal|,|perfkitbenchmarker_version:v1.12.0-1738-g9639059b|,|receiving_zone:westeurope|,|run_number:0|,|sending_zone:westeurope|,|vm_1_/dev/sda:32213303296|,|vm_1_/dev/sdb:17179869184|,|vm_1_accelerated_networking:False|,|vm_1_boot_disk_size:default|,|vm_1_boot_disk_type:Standard_LRS|,|vm_1_cloud:Azure|,|vm_1_dedicated_host:False|,|vm_1_image:Canonical:UbuntuServer:16.04-LTS:latest|,|vm_1_kernel_release:4.15.0-1071-azure|,|vm_1_machine_type:Standard_B2ms|,|vm_1_num_cpus:2|,|vm_1_numa_node_count:1|,|vm_1_os_info:Ubuntu 16.04.6 LTS|,|vm_1_os_type:ubuntu1604|,|vm_1_placement_group_strategy:None|,|vm_1_preemptible:False|,|vm_1_tcp_congestion_control:cubic|,|vm_1_vm_count:1|,|vm_1_zone:westeurope|,|vm_2_/dev/sda:32213303296|,|vm_2_/dev/sdb:17179869184|,|vm_2_accelerated_networking:False|,|vm_2_boot_disk_size:default|,|vm_2_boot_disk_type:Standard_LRS|,|vm_2_cloud:Azure|,|vm_2_dedicated_host:False|,|vm_2_image:Canonical:UbuntuServer:16.04-LTS:latest|,|vm_2_kernel_release:4.15.0-1071-azure|,|vm_2_machine_type:Standard_B2ms|,|vm_2_num_cpus:2|,|vm_2_numa_node_count:1|,|vm_2_os_info:Ubuntu 16.04.6 LTS|,|vm_2_os_type:ubuntu1604|,|vm_2_placement_group_strategy:None|,|vm_2_preemptible:False|,|vm_2_tcp_congestion_control:cubic|,|vm_2_vm_count:1|,|vm_2_zone:westeurope|"}
{"metric": "Average Latency", "value": 2.082, "unit": "ms", "timestamp": 1584891022.3412929, "test": "ping", "product_name": "PerfKitBenchmarker", "official": false, "owner": "tom", "run_uri": "feba8f72-b090fa9f-2082-42b7-ac59-948012e52e02", "sample_uri": "81e8e879-50a2-4ca0-8efa-07b1dabbd1ea", "labels": "|ip_type:internal|,|perfkitbenchmarker_version:v1.12.0-1738-g9639059b|,|receiving_zone:westeurope|,|run_number:0|,|sending_zone:westeurope|,|vm_1_/dev/sda:32213303296|,|vm_1_/dev/sdb:17179869184|,|vm_1_accelerated_networking:False|,|vm_1_boot_disk_size:default|,|vm_1_boot_disk_type:Standard_LRS|,|vm_1_cloud:Azure|,|vm_1_dedicated_host:False|,|vm_1_image:Canonical:UbuntuServer:16.04-LTS:latest|,|vm_1_kernel_release:4.15.0-1071-azure|,|vm_1_machine_type:Standard_B2ms|,|vm_1_num_cpus:2|,|vm_1_numa_node_count:1|,|vm_1_os_info:Ubuntu 16.04.6 LTS|,|vm_1_os_type:ubuntu1604|,|vm_1_placement_group_strategy:None|,|vm_1_preemptible:False|,|vm_1_tcp_congestion_control:cubic|,|vm_1_vm_count:1|,|vm_1_zone:westeurope|,|vm_2_/dev/sda:32213303296|,|vm_2_/dev/sdb:17179869184|,|vm_2_accelerated_networking:False|,|vm_2_boot_disk_size:default|,|vm_2_boot_disk_type:Standard_LRS|,|vm_2_cloud:Azure|,|vm_2_dedicated_host:False|,|vm_2_image:Canonical:UbuntuServer:16.04-LTS:latest|,|vm_2_kernel_release:4.15.0-1071-azure|,|vm_2_machine_type:Standard_B2ms|,|vm_2_num_cpus:2|,|vm_2_numa_node_count:1|,|vm_2_os_info:Ubuntu 16.04.6 LTS|,|vm_2_os_type:ubuntu1604|,|vm_2_placement_group_strategy:None|,|vm_2_preemptible:False|,|vm_2_tcp_congestion_control:cubic|,|vm_2_vm_count:1|,|vm_2_zone:westeurope|"}
{"metric": "Max Latency", "value": 4.301, "unit": "ms", "timestamp": 1584891022.3412998, "test": "ping", "product_name": "PerfKitBenchmarker", "official": false, "owner": "tom", "run_uri": "feba8f72-b090fa9f-2082-42b7-ac59-948012e52e02", "sample_uri": "a237d26d-bd35-4d70-a65e-04ec8ac22d84", "labels": "|ip_type:internal|,|perfkitbenchmarker_version:v1.12.0-1738-g9639059b|,|receiving_zone:westeurope|,|run_number:0|,|sending_zone:westeurope|,|vm_1_/dev/sda:32213303296|,|vm_1_/dev/sdb:17179869184|,|vm_1_accelerated_networking:False|,|vm_1_boot_disk_size:default|,|vm_1_boot_disk_type:Standard_LRS|,|vm_1_cloud:Azure|,|vm_1_dedicated_host:False|,|vm_1_image:Canonical:UbuntuServer:16.04-LTS:latest|,|vm_1_kernel_release:4.15.0-1071-azure|,|vm_1_machine_type:Standard_B2ms|,|vm_1_num_cpus:2|,|vm_1_numa_node_count:1|,|vm_1_os_info:Ubuntu 16.04.6 LTS|,|vm_1_os_type:ubuntu1604|,|vm_1_placement_group_strategy:None|,|vm_1_preemptible:False|,|vm_1_tcp_congestion_control:cubic|,|vm_1_vm_count:1|,|vm_1_zone:westeurope|,|vm_2_/dev/sda:32213303296|,|vm_2_/dev/sdb:17179869184|,|vm_2_accelerated_networking:False|,|vm_2_boot_disk_size:default|,|vm_2_boot_disk_type:Standard_LRS|,|vm_2_cloud:Azure|,|vm_2_dedicated_host:False|,|vm_2_image:Canonical:UbuntuServer:16.04-LTS:latest|,|vm_2_kernel_release:4.15.0-1071-azure|,|vm_2_machine_type:Standard_B2ms|,|vm_2_num_cpus:2|,|vm_2_numa_node_count:1|,|vm_2_os_info:Ubuntu 16.04.6 LTS|,|vm_2_os_type:ubuntu1604|,|vm_2_placement_group_strategy:None|,|vm_2_preemptible:False|,|vm_2_tcp_congestion_control:cubic|,|vm_2_vm_count:1|,|vm_2_zone:westeurope|"}
{"metric": "Latency Std Dev", "value": 0.379, "unit": "ms", "timestamp": 1584891022.3413055, "test": "ping", "product_name": "PerfKitBenchmarker", "official": false, "owner": "tom", "run_uri": "feba8f72-b090fa9f-2082-42b7-ac59-948012e52e02", "sample_uri": "d6c5ee86-6498-495b-9d28-84d163f33cab", "labels": "|ip_type:internal|,|perfkitbenchmarker_version:v1.12.0-1738-g9639059b|,|receiving_zone:westeurope|,|run_number:0|,|sending_zone:westeurope|,|vm_1_/dev/sda:32213303296|,|vm_1_/dev/sdb:17179869184|,|vm_1_accelerated_networking:False|,|vm_1_boot_disk_size:default|,|vm_1_boot_disk_type:Standard_LRS|,|vm_1_cloud:Azure|,|vm_1_dedicated_host:False|,|vm_1_image:Canonical:UbuntuServer:16.04-LTS:latest|,|vm_1_kernel_release:4.15.0-1071-azure|,|vm_1_machine_type:Standard_B2ms|,|vm_1_num_cpus:2|,|vm_1_numa_node_count:1|,|vm_1_os_info:Ubuntu 16.04.6 LTS|,|vm_1_os_type:ubuntu1604|,|vm_1_placement_group_strategy:None|,|vm_1_preemptible:False|,|vm_1_tcp_congestion_control:cubic|,|vm_1_vm_count:1|,|vm_1_zone:westeurope|,|vm_2_/dev/sda:32213303296|,|vm_2_/dev/sdb:17179869184|,|vm_2_accelerated_networking:False|,|vm_2_boot_disk_size:default|,|vm_2_boot_disk_type:Standard_LRS|,|vm_2_cloud:Azure|,|vm_2_dedicated_host:False|,|vm_2_image:Canonical:UbuntuServer:16.04-LTS:latest|,|vm_2_kernel_release:4.15.0-1071-azure|,|vm_2_machine_type:Standard_B2ms|,|vm_2_num_cpus:2|,|vm_2_numa_node_count:1|,|vm_2_os_info:Ubuntu 16.04.6 LTS|,|vm_2_os_type:ubuntu1604|,|vm_2_placement_group_strategy:None|,|vm_2_preemptible:False|,|vm_2_tcp_congestion_control:cubic|,|vm_2_vm_count:1|,|vm_2_zone:westeurope|"}
{"metric": "Min Latency", "value": 1.643, "unit": "ms", "timestamp": 1584891121.6899722, "test": "ping", "product_name": "PerfKitBenchmarker", "official": false, "owner": "tom", "run_uri": "feba8f72-b090fa9f-2082-42b7-ac59-948012e52e02", "sample_uri": "0385d7f7-cc12-487d-8117-1f71c5f57cf4", "labels": "|ip_type:internal|,|perfkitbenchmarker_version:v1.12.0-1738-g9639059b|,|receiving_zone:westeurope|,|run_number:0|,|sending_zone:westeurope|,|vm_1_/dev/sda:32213303296|,|vm_1_/dev/sdb:17179869184|,|vm_1_accelerated_networking:False|,|vm_1_boot_disk_size:default|,|vm_1_boot_disk_type:Standard_LRS|,|vm_1_cloud:Azure|,|vm_1_dedicated_host:False|,|vm_1_image:Canonical:UbuntuServer:16.04-LTS:latest|,|vm_1_kernel_release:4.15.0-1071-azure|,|vm_1_machine_type:Standard_B2ms|,|vm_1_num_cpus:2|,|vm_1_numa_node_count:1|,|vm_1_os_info:Ubuntu 16.04.6 LTS|,|vm_1_os_type:ubuntu1604|,|vm_1_placement_group_strategy:None|,|vm_1_preemptible:False|,|vm_1_tcp_congestion_control:cubic|,|vm_1_vm_count:1|,|vm_1_zone:westeurope|,|vm_2_/dev/sda:32213303296|,|vm_2_/dev/sdb:17179869184|,|vm_2_accelerated_networking:False|,|vm_2_boot_disk_size:default|,|vm_2_boot_disk_type:Standard_LRS|,|vm_2_cloud:Azure|,|vm_2_dedicated_host:False|,|vm_2_image:Canonical:UbuntuServer:16.04-LTS:latest|,|vm_2_kernel_release:4.15.0-1071-azure|,|vm_2_machine_type:Standard_B2ms|,|vm_2_num_cpus:2|,|vm_2_numa_node_count:1|,|vm_2_os_info:Ubuntu 16.04.6 LTS|,|vm_2_os_type:ubuntu1604|,|vm_2_placement_group_strategy:None|,|vm_2_preemptible:False|,|vm_2_tcp_congestion_control:cubic|,|vm_2_vm_count:1|,|vm_2_zone:westeurope|"}
{"metric": "Average Latency", "value": 2.116, "unit": "ms", "timestamp": 1584891121.6899893, "test": "ping", "product_name": "PerfKitBenchmarker", "official": false, "owner": "tom", "run_uri": "feba8f72-b090fa9f-2082-42b7-ac59-948012e52e02", "sample_uri": "96b833d4-99e9-48bc-a6b4-476adb29ad52", "labels": "|ip_type:internal|,|perfkitbenchmarker_version:v1.12.0-1738-g9639059b|,|receiving_zone:westeurope|,|run_number:0|,|sending_zone:westeurope|,|vm_1_/dev/sda:32213303296|,|vm_1_/dev/sdb:17179869184|,|vm_1_accelerated_networking:False|,|vm_1_boot_disk_size:default|,|vm_1_boot_disk_type:Standard_LRS|,|vm_1_cloud:Azure|,|vm_1_dedicated_host:False|,|vm_1_image:Canonical:UbuntuServer:16.04-LTS:latest|,|vm_1_kernel_release:4.15.0-1071-azure|,|vm_1_machine_type:Standard_B2ms|,|vm_1_num_cpus:2|,|vm_1_numa_node_count:1|,|vm_1_os_info:Ubuntu 16.04.6 LTS|,|vm_1_os_type:ubuntu1604|,|vm_1_placement_group_strategy:None|,|vm_1_preemptible:False|,|vm_1_tcp_congestion_control:cubic|,|vm_1_vm_count:1|,|vm_1_zone:westeurope|,|vm_2_/dev/sda:32213303296|,|vm_2_/dev/sdb:17179869184|,|vm_2_accelerated_networking:False|,|vm_2_boot_disk_size:default|,|vm_2_boot_disk_type:Standard_LRS|,|vm_2_cloud:Azure|,|vm_2_dedicated_host:False|,|vm_2_image:Canonical:UbuntuServer:16.04-LTS:latest|,|vm_2_kernel_release:4.15.0-1071-azure|,|vm_2_machine_type:Standard_B2ms|,|vm_2_num_cpus:2|,|vm_2_numa_node_count:1|,|vm_2_os_info:Ubuntu 16.04.6 LTS|,|vm_2_os_type:ubuntu1604|,|vm_2_placement_group_strategy:None|,|vm_2_preemptible:False|,|vm_2_tcp_congestion_control:cubic|,|vm_2_vm_count:1|,|vm_2_zone:westeurope|"}
{"metric": "Max Latency", "value": 3.347, "unit": "ms", "timestamp": 1584891121.6899912, "test": "ping", "product_name": "PerfKitBenchmarker", "official": false, "owner": "tom", "run_uri": "feba8f72-b090fa9f-2082-42b7-ac59-948012e52e02", "sample_uri": "e3a65ef6-3af4-4842-ad1e-915a4afae96c", "labels": "|ip_type:internal|,|perfkitbenchmarker_version:v1.12.0-1738-g9639059b|,|receiving_zone:westeurope|,|run_number:0|,|sending_zone:westeurope|,|vm_1_/dev/sda:32213303296|,|vm_1_/dev/sdb:17179869184|,|vm_1_accelerated_networking:False|,|vm_1_boot_disk_size:default|,|vm_1_boot_disk_type:Standard_LRS|,|vm_1_cloud:Azure|,|vm_1_dedicated_host:False|,|vm_1_image:Canonical:UbuntuServer:16.04-LTS:latest|,|vm_1_kernel_release:4.15.0-1071-azure|,|vm_1_machine_type:Standard_B2ms|,|vm_1_num_cpus:2|,|vm_1_numa_node_count:1|,|vm_1_os_info:Ubuntu 16.04.6 LTS|,|vm_1_os_type:ubuntu1604|,|vm_1_placement_group_strategy:None|,|vm_1_preemptible:False|,|vm_1_tcp_congestion_control:cubic|,|vm_1_vm_count:1|,|vm_1_zone:westeurope|,|vm_2_/dev/sda:32213303296|,|vm_2_/dev/sdb:17179869184|,|vm_2_accelerated_networking:False|,|vm_2_boot_disk_size:default|,|vm_2_boot_disk_type:Standard_LRS|,|vm_2_cloud:Azure|,|vm_2_dedicated_host:False|,|vm_2_image:Canonical:UbuntuServer:16.04-LTS:latest|,|vm_2_kernel_release:4.15.0-1071-azure|,|vm_2_machine_type:Standard_B2ms|,|vm_2_num_cpus:2|,|vm_2_numa_node_count:1|,|vm_2_os_info:Ubuntu 16.04.6 LTS|,|vm_2_os_type:ubuntu1604|,|vm_2_placement_group_strategy:None|,|vm_2_preemptible:False|,|vm_2_tcp_congestion_control:cubic|,|vm_2_vm_count:1|,|vm_2_zone:westeurope|"}
{"metric": "Latency Std Dev", "value": 0.351, "unit": "ms", "timestamp": 1584891121.6899927, "test": "ping", "product_name": "PerfKitBenchmarker", "official": false, "owner": "tom", "run_uri": "feba8f72-b090fa9f-2082-42b7-ac59-948012e52e02", "sample_uri": "ba2fefae-c5b7-490d-91eb-d557a389df6a", "labels": "|ip_type:internal|,|perfkitbenchmarker_version:v1.12.0-1738-g9639059b|,|receiving_zone:westeurope|,|run_number:0|,|sending_zone:westeurope|,|vm_1_/dev/sda:32213303296|,|vm_1_/dev/sdb:17179869184|,|vm_1_accelerated_networking:False|,|vm_1_boot_disk_size:default|,|vm_1_boot_disk_type:Standard_LRS|,|vm_1_cloud:Azure|,|vm_1_dedicated_host:False|,|vm_1_image:Canonical:UbuntuServer:16.04-LTS:latest|,|vm_1_kernel_release:4.15.0-1071-azure|,|vm_1_machine_type:Standard_B2ms|,|vm_1_num_cpus:2|,|vm_1_numa_node_count:1|,|vm_1_os_info:Ubuntu 16.04.6 LTS|,|vm_1_os_type:ubuntu1604|,|vm_1_placement_group_strategy:None|,|vm_1_preemptible:False|,|vm_1_tcp_congestion_control:cubic|,|vm_1_vm_count:1|,|vm_1_zone:westeurope|,|vm_2_/dev/sda:32213303296|,|vm_2_/dev/sdb:17179869184|,|vm_2_accelerated_networking:False|,|vm_2_boot_disk_size:default|,|vm_2_boot_disk_type:Standard_LRS|,|vm_2_cloud:Azure|,|vm_2_dedicated_host:False|,|vm_2_image:Canonical:UbuntuServer:16.04-LTS:latest|,|vm_2_kernel_release:4.15.0-1071-azure|,|vm_2_machine_type:Standard_B2ms|,|vm_2_num_cpus:2|,|vm_2_numa_node_count:1|,|vm_2_os_info:Ubuntu 16.04.6 LTS|,|vm_2_os_type:ubuntu1604|,|vm_2_placement_group_strategy:None|,|vm_2_preemptible:False|,|vm_2_tcp_congestion_control:cubic|,|vm_2_vm_count:1|,|vm_2_zone:westeurope|"}
{"metric": "lscpu", "value": 0, "unit": "", "timestamp": 1584891121.6901488, "test": "ping", "product_name": "PerfKitBenchmarker", "official": false, "owner": "tom", "run_uri": "feba8f72-b090fa9f-2082-42b7-ac59-948012e52e02", "sample_uri": "0e80c820-344a-413a-98b5-f691f40c99b0", "labels": "|Architecture:x86_64|,|BogoMIPS:4589.37|,|Byte Order:Little Endian|,|CPU MHz:2294.686|,|CPU family:6|,|CPU op-mode(s):32-bit, 64-bit|,|CPU(s):2|,|Core(s) per socket:2|,|Flags:fpu vme de pse tsc msr pae mce cx8 apic sep mtrr pge mca cmov pat pse36 clflush mmx fxsr sse sse2 ss ht syscall nx pdpe1gb rdtscp lm constant_tsc rep_good nopl xtopology cpuid pni pclmulqdq ssse3 fma cx16 pcid sse4_1 sse4_2 movbe popcnt aes xsave avx f16c rdrand hypervisor lahf_lm abm 3dnowprefetch invpcid_single pti fsgsbase bmi1 hle avx2 smep bmi2 erms invpcid rtm rdseed adx smap xsaveopt md_clear|,|Hypervisor vendor:Microsoft|,|L1d cache:32K|,|L1i cache:32K|,|L2 cache:256K|,|L3 cache:51200K|,|Model:79|,|Model name:Intel(R) Xeon(R) CPU E5-2673 v4 @ 2.30GHz|,|NUMA node(s):1|,|NUMA node0 CPU(s):0,1|,|On-line CPU(s) list:0,1|,|Socket(s):1|,|Stepping:1|,|Thread(s) per core:1|,|Vendor ID:GenuineIntel|,|Virtualization type:full|,|node_name:pkb-feba8f72-0|,|perfkitbenchmarker_version:v1.12.0-1738-g9639059b|,|vm_1_/dev/sda:32213303296|,|vm_1_/dev/sdb:17179869184|,|vm_1_accelerated_networking:False|,|vm_1_boot_disk_size:default|,|vm_1_boot_disk_type:Standard_LRS|,|vm_1_cloud:Azure|,|vm_1_dedicated_host:False|,|vm_1_image:Canonical:UbuntuServer:16.04-LTS:latest|,|vm_1_kernel_release:4.15.0-1071-azure|,|vm_1_machine_type:Standard_B2ms|,|vm_1_num_cpus:2|,|vm_1_numa_node_count:1|,|vm_1_os_info:Ubuntu 16.04.6 LTS|,|vm_1_os_type:ubuntu1604|,|vm_1_placement_group_strategy:None|,|vm_1_preemptible:False|,|vm_1_tcp_congestion_control:cubic|,|vm_1_vm_count:1|,|vm_1_zone:westeurope|,|vm_2_/dev/sda:32213303296|,|vm_2_/dev/sdb:17179869184|,|vm_2_accelerated_networking:False|,|vm_2_boot_disk_size:default|,|vm_2_boot_disk_type:Standard_LRS|,|vm_2_cloud:Azure|,|vm_2_dedicated_host:False|,|vm_2_image:Canonical:UbuntuServer:16.04-LTS:latest|,|vm_2_kernel_release:4.15.0-1071-azure|,|vm_2_machine_type:Standard_B2ms|,|vm_2_num_cpus:2|,|vm_2_numa_node_count:1|,|vm_2_os_info:Ubuntu 16.04.6 LTS|,|vm_2_os_type:ubuntu1604|,|vm_2_placement_group_strategy:None|,|vm_2_preemptible:False|,|vm_2_tcp_congestion_control:cubic|,|vm_2_vm_count:1|,|vm_2_zone:westeurope|"}
{"metric": "lscpu", "value": 0, "unit": "", "timestamp": 1584891121.690155, "test": "ping", "product_name": "PerfKitBenchmarker", "official": false, "owner": "tom", "run_uri": "feba8f72-b090fa9f-2082-42b7-ac59-948012e52e02", "sample_uri": "19c30593-1144-433c-b42f-f80e17adf4d6", "labels": "|Architecture:x86_64|,|BogoMIPS:4589.36|,|Byte Order:Little Endian|,|CPU MHz:2294.684|,|CPU family:6|,|CPU op-mode(s):32-bit, 64-bit|,|CPU(s):2|,|Core(s) per socket:2|,|Flags:fpu vme de pse tsc msr pae mce cx8 apic sep mtrr pge mca cmov pat pse36 clflush mmx fxsr sse sse2 ss ht syscall nx pdpe1gb rdtscp lm constant_tsc rep_good nopl xtopology cpuid pni pclmulqdq ssse3 fma cx16 pcid sse4_1 sse4_2 movbe popcnt aes xsave avx f16c rdrand hypervisor lahf_lm abm 3dnowprefetch invpcid_single pti fsgsbase bmi1 hle avx2 smep bmi2 erms invpcid rtm rdseed adx smap xsaveopt md_clear|,|Hypervisor vendor:Microsoft|,|L1d cache:32K|,|L1i cache:32K|,|L2 cache:256K|,|L3 cache:51200K|,|Model:79|,|Model name:Intel(R) Xeon(R) CPU E5-2673 v4 @ 2.30GHz|,|NUMA node(s):1|,|NUMA node0 CPU(s):0,1|,|On-line CPU(s) list:0,1|,|Socket(s):1|,|Stepping:1|,|Thread(s) per core:1|,|Vendor ID:GenuineIntel|,|Virtualization type:full|,|node_name:pkb-feba8f72-1|,|perfkitbenchmarker_version:v1.12.0-1738-g9639059b|,|vm_1_/dev/sda:32213303296|,|vm_1_/dev/sdb:17179869184|,|vm_1_accelerated_networking:False|,|vm_1_boot_disk_size:default|,|vm_1_boot_disk_type:Standard_LRS|,|vm_1_cloud:Azure|,|vm_1_dedicated_host:False|,|vm_1_image:Canonical:UbuntuServer:16.04-LTS:latest|,|vm_1_kernel_release:4.15.0-1071-azure|,|vm_1_machine_type:Standard_B2ms|,|vm_1_num_cpus:2|,|vm_1_numa_node_count:1|,|vm_1_os_info:Ubuntu 16.04.6 LTS|,|vm_1_os_type:ubuntu1604|,|vm_1_placement_group_strategy:None|,|vm_1_preemptible:False|,|vm_1_tcp_congestion_control:cubic|,|vm_1_vm_count:1|,|vm_1_zone:westeurope|,|vm_2_/dev/sda:32213303296|,|vm_2_/dev/sdb:17179869184|,|vm_2_accelerated_networking:False|,|vm_2_boot_disk_size:default|,|vm_2_boot_disk_type:Standard_LRS|,|vm_2_cloud:Azure|,|vm_2_dedicated_host:False|,|vm_2_image:Canonical:UbuntuServer:16.04-LTS:latest|,|vm_2_kernel_release:4.15.0-1071-azure|,|vm_2_machine_type:Standard_B2ms|,|vm_2_num_cpus:2|,|vm_2_numa_node_count:1|,|vm_2_os_info:Ubuntu 16.04.6 LTS|,|vm_2_os_type:ubuntu1604|,|vm_2_placement_group_strategy:None|,|vm_2_preemptible:False|,|vm_2_tcp_congestion_control:cubic|,|vm_2_vm_count:1|,|vm_2_zone:westeurope|"}
{"metric": "proccpu", "value": 0, "unit": "", "timestamp": 1584891121.760506, "test": "ping", "product_name": "PerfKitBenchmarker", "official": false, "owner": "tom", "run_uri": "feba8f72-b090fa9f-2082-42b7-ac59-948012e52e02", "sample_uri": "23caf98a-19dd-4871-aaca-56aa1bf2b2f3", "labels": "|address sizes:44 bits physical, 48 bits virtual|,|bogomips:4589.37|,|bugs:cpu_meltdown itlb_multihit l1tf mds spec_store_bypass spectre_v1 spectre_v2 swapgs taa|,|cache size:51200 KB|,|cache_alignment:64|,|clflush size:64|,|cpu MHz:2294.686|,|cpu cores:2|,|cpu family:6|,|cpuid level:20|,|flags:3dnowprefetch abm adx aes apic avx avx2 bmi1 bmi2 clflush cmov constant_tsc cpuid cx16 cx8 de erms f16c fma fpu fsgsbase fxsr hle ht hypervisor invpcid invpcid_single lahf_lm lm mca mce md_clear mmx movbe msr mtrr nopl nx pae pat pcid pclmulqdq pdpe1gb pge pni popcnt pse pse36 pti rdrand rdseed rdtscp rep_good rtm sep smap smep ss sse sse2 sse4_1 sse4_2 ssse3 syscall tsc vme xsave xsaveopt xtopology|,|fpu:yes|,|fpu_exception:yes|,|microcode:0xffffffff|,|model:79|,|model name:Intel(R) Xeon(R) CPU E5-2673 v4 @ 2.30GHz|,|node_name:pkb-feba8f72-0|,|perfkitbenchmarker_version:v1.12.0-1738-g9639059b|,|power management:|,|proccpu:address sizes,bogomips,bugs,cache size,cache_alignment,clflush size,cpu MHz,cpu cores,cpu family,cpuid level,flags,fpu,fpu_exception,microcode,model,model name,power management,siblings,stepping,vendor_id,wp|,|siblings:2|,|stepping:1|,|vendor_id:GenuineIntel|,|vm_1_/dev/sda:32213303296|,|vm_1_/dev/sdb:17179869184|,|vm_1_accelerated_networking:False|,|vm_1_boot_disk_size:default|,|vm_1_boot_disk_type:Standard_LRS|,|vm_1_cloud:Azure|,|vm_1_dedicated_host:False|,|vm_1_image:Canonical:UbuntuServer:16.04-LTS:latest|,|vm_1_kernel_release:4.15.0-1071-azure|,|vm_1_machine_type:Standard_B2ms|,|vm_1_num_cpus:2|,|vm_1_numa_node_count:1|,|vm_1_os_info:Ubuntu 16.04.6 LTS|,|vm_1_os_type:ubuntu1604|,|vm_1_placement_group_strategy:None|,|vm_1_preemptible:False|,|vm_1_tcp_congestion_control:cubic|,|vm_1_vm_count:1|,|vm_1_zone:westeurope|,|vm_2_/dev/sda:32213303296|,|vm_2_/dev/sdb:17179869184|,|vm_2_accelerated_networking:False|,|vm_2_boot_disk_size:default|,|vm_2_boot_disk_type:Standard_LRS|,|vm_2_cloud:Azure|,|vm_2_dedicated_host:False|,|vm_2_image:Canonical:UbuntuServer:16.04-LTS:latest|,|vm_2_kernel_release:4.15.0-1071-azure|,|vm_2_machine_type:Standard_B2ms|,|vm_2_num_cpus:2|,|vm_2_numa_node_count:1|,|vm_2_os_info:Ubuntu 16.04.6 LTS|,|vm_2_os_type:ubuntu1604|,|vm_2_placement_group_strategy:None|,|vm_2_preemptible:False|,|vm_2_tcp_congestion_control:cubic|,|vm_2_vm_count:1|,|vm_2_zone:westeurope|,|wp:yes|"}
{"metric": "proccpu_mapping", "value": 0, "unit": "", "timestamp": 1584891121.760534, "test": "ping", "product_name": "PerfKitBenchmarker", "official": false, "owner": "tom", "run_uri": "feba8f72-b090fa9f-2082-42b7-ac59-948012e52e02", "sample_uri": "e8aef2f2-db11-4207-b3f3-b9848726b17d", "labels": "|node_name:pkb-feba8f72-0|,|perfkitbenchmarker_version:v1.12.0-1738-g9639059b|,|proc_0:apicid=0;core id=0;initial apicid=0;physical id=0|,|proc_1:apicid=1;core id=1;initial apicid=1;physical id=0|,|vm_1_/dev/sda:32213303296|,|vm_1_/dev/sdb:17179869184|,|vm_1_accelerated_networking:False|,|vm_1_boot_disk_size:default|,|vm_1_boot_disk_type:Standard_LRS|,|vm_1_cloud:Azure|,|vm_1_dedicated_host:False|,|vm_1_image:Canonical:UbuntuServer:16.04-LTS:latest|,|vm_1_kernel_release:4.15.0-1071-azure|,|vm_1_machine_type:Standard_B2ms|,|vm_1_num_cpus:2|,|vm_1_numa_node_count:1|,|vm_1_os_info:Ubuntu 16.04.6 LTS|,|vm_1_os_type:ubuntu1604|,|vm_1_placement_group_strategy:None|,|vm_1_preemptible:False|,|vm_1_tcp_congestion_control:cubic|,|vm_1_vm_count:1|,|vm_1_zone:westeurope|,|vm_2_/dev/sda:32213303296|,|vm_2_/dev/sdb:17179869184|,|vm_2_accelerated_networking:False|,|vm_2_boot_disk_size:default|,|vm_2_boot_disk_type:Standard_LRS|,|vm_2_cloud:Azure|,|vm_2_dedicated_host:False|,|vm_2_image:Canonical:UbuntuServer:16.04-LTS:latest|,|vm_2_kernel_release:4.15.0-1071-azure|,|vm_2_machine_type:Standard_B2ms|,|vm_2_num_cpus:2|,|vm_2_numa_node_count:1|,|vm_2_os_info:Ubuntu 16.04.6 LTS|,|vm_2_os_type:ubuntu1604|,|vm_2_placement_group_strategy:None|,|vm_2_preemptible:False|,|vm_2_tcp_congestion_control:cubic|,|vm_2_vm_count:1|,|vm_2_zone:westeurope|"}
{"metric": "proccpu", "value": 0, "unit": "", "timestamp": 1584891121.8268514, "test": "ping", "product_name": "PerfKitBenchmarker", "official": false, "owner": "tom", "run_uri": "feba8f72-b090fa9f-2082-42b7-ac59-948012e52e02", "sample_uri": "c083adb5-a8d0-49cc-9e90-6d58c0fdc651", "labels": "|address sizes:44 bits physical, 48 bits virtual|,|bogomips:4589.36|,|bugs:cpu_meltdown itlb_multihit l1tf mds spec_store_bypass spectre_v1 spectre_v2 swapgs taa|,|cache size:51200 KB|,|cache_alignment:64|,|clflush size:64|,|cpu MHz:2294.684|,|cpu cores:2|,|cpu family:6|,|cpuid level:20|,|flags:3dnowprefetch abm adx aes apic avx avx2 bmi1 bmi2 clflush cmov constant_tsc cpuid cx16 cx8 de erms f16c fma fpu fsgsbase fxsr hle ht hypervisor invpcid invpcid_single lahf_lm lm mca mce md_clear mmx movbe msr mtrr nopl nx pae pat pcid pclmulqdq pdpe1gb pge pni popcnt pse pse36 pti rdrand rdseed rdtscp rep_good rtm sep smap smep ss sse sse2 sse4_1 sse4_2 ssse3 syscall tsc vme xsave xsaveopt xtopology|,|fpu:yes|,|fpu_exception:yes|,|microcode:0xffffffff|,|model:79|,|model name:Intel(R) Xeon(R) CPU E5-2673 v4 @ 2.30GHz|,|node_name:pkb-feba8f72-1|,|perfkitbenchmarker_version:v1.12.0-1738-g9639059b|,|power management:|,|proccpu:address sizes,bogomips,bugs,cache size,cache_alignment,clflush size,cpu MHz,cpu cores,cpu family,cpuid level,flags,fpu,fpu_exception,microcode,model,model name,power management,siblings,stepping,vendor_id,wp|,|siblings:2|,|stepping:1|,|vendor_id:GenuineIntel|,|vm_1_/dev/sda:32213303296|,|vm_1_/dev/sdb:17179869184|,|vm_1_accelerated_networking:False|,|vm_1_boot_disk_size:default|,|vm_1_boot_disk_type:Standard_LRS|,|vm_1_cloud:Azure|,|vm_1_dedicated_host:False|,|vm_1_image:Canonical:UbuntuServer:16.04-LTS:latest|,|vm_1_kernel_release:4.15.0-1071-azure|,|vm_1_machine_type:Standard_B2ms|,|vm_1_num_cpus:2|,|vm_1_numa_node_count:1|,|vm_1_os_info:Ubuntu 16.04.6 LTS|,|vm_1_os_type:ubuntu1604|,|vm_1_placement_group_strategy:None|,|vm_1_preemptible:False|,|vm_1_tcp_congestion_control:cubic|,|vm_1_vm_count:1|,|vm_1_zone:westeurope|,|vm_2_/dev/sda:32213303296|,|vm_2_/dev/sdb:17179869184|,|vm_2_accelerated_networking:False|,|vm_2_boot_disk_size:default|,|vm_2_boot_disk_type:Standard_LRS|,|vm_2_cloud:Azure|,|vm_2_dedicated_host:False|,|vm_2_image:Canonical:UbuntuServer:16.04-LTS:latest|,|vm_2_kernel_release:4.15.0-1071-azure|,|vm_2_machine_type:Standard_B2ms|,|vm_2_num_cpus:2|,|vm_2_numa_node_count:1|,|vm_2_os_info:Ubuntu 16.04.6 LTS|,|vm_2_os_type:ubuntu1604|,|vm_2_placement_group_strategy:None|,|vm_2_preemptible:False|,|vm_2_tcp_congestion_control:cubic|,|vm_2_vm_count:1|,|vm_2_zone:westeurope|,|wp:yes|"}
{"metric": "proccpu_mapping", "value": 0, "unit": "", "timestamp": 1584891121.8268893, "test": "ping", "product_name": "PerfKitBenchmarker", "official": false, "owner": "tom", "run_uri": "feba8f72-b090fa9f-2082-42b7-ac59-948012e52e02", "sample_uri": "1e493ce0-0f1c-4109-a067-1d20babee871", "labels": "|node_name:pkb-feba8f72-1|,|perfkitbenchmarker_version:v1.12.0-1738-g9639059b|,|proc_0:apicid=0;core id=0;initial apicid=0;physical id=0|,|proc_1:apicid=1;core id=1;initial apicid=1;physical id=0|,|vm_1_/dev/sda:32213303296|,|vm_1_/dev/sdb:17179869184|,|vm_1_accelerated_networking:False|,|vm_1_boot_disk_size:default|,|vm_1_boot_disk_type:Standard_LRS|,|vm_1_cloud:Azure|,|vm_1_dedicated_host:False|,|vm_1_image:Canonical:UbuntuServer:16.04-LTS:latest|,|vm_1_kernel_release:4.15.0-1071-azure|,|vm_1_machine_type:Standard_B2ms|,|vm_1_num_cpus:2|,|vm_1_numa_node_count:1|,|vm_1_os_info:Ubuntu 16.04.6 LTS|,|vm_1_os_type:ubuntu1604|,|vm_1_placement_group_strategy:None|,|vm_1_preemptible:False|,|vm_1_tcp_congestion_control:cubic|,|vm_1_vm_count:1|,|vm_1_zone:westeurope|,|vm_2_/dev/sda:32213303296|,|vm_2_/dev/sdb:17179869184|,|vm_2_accelerated_networking:False|,|vm_2_boot_disk_size:default|,|vm_2_boot_disk_type:Standard_LRS|,|vm_2_cloud:Azure|,|vm_2_dedicated_host:False|,|vm_2_image:Canonical:UbuntuServer:16.04-LTS:latest|,|vm_2_kernel_release:4.15.0-1071-azure|,|vm_2_machine_type:Standard_B2ms|,|vm_2_num_cpus:2|,|vm_2_numa_node_count:1|,|vm_2_os_info:Ubuntu 16.04.6 LTS|,|vm_2_os_type:ubuntu1604|,|vm_2_placement_group_strategy:None|,|vm_2_preemptible:False|,|vm_2_tcp_congestion_control:cubic|,|vm_2_vm_count:1|,|vm_2_zone:westeurope|"}
{"metric": "End to End Runtime", "value": 1653.1401443481445, "unit": "seconds", "timestamp": 1584892352.466525, "test": "ping", "product_name": "PerfKitBenchmarker", "official": false, "owner": "tom", "run_uri": "feba8f72-b090fa9f-2082-42b7-ac59-948012e52e02", "sample_uri": "65b9f805-09a7-460b-be1e-13da9d9c90be", "labels": "|perfkitbenchmarker_version:v1.12.0-1738-g9639059b|,|vm_1_/dev/sda:32213303296|,|vm_1_/dev/sdb:17179869184|,|vm_1_accelerated_networking:False|,|vm_1_boot_disk_size:default|,|vm_1_boot_disk_type:Standard_LRS|,|vm_1_cloud:Azure|,|vm_1_dedicated_host:False|,|vm_1_image:Canonical:UbuntuServer:16.04-LTS:latest|,|vm_1_kernel_release:4.15.0-1071-azure|,|vm_1_machine_type:Standard_B2ms|,|vm_1_num_cpus:2|,|vm_1_numa_node_count:1|,|vm_1_os_info:Ubuntu 16.04.6 LTS|,|vm_1_os_type:ubuntu1604|,|vm_1_placement_group_strategy:None|,|vm_1_preemptible:False|,|vm_1_tcp_congestion_control:cubic|,|vm_1_vm_count:1|,|vm_1_zone:westeurope|,|vm_2_/dev/sda:32213303296|,|vm_2_/dev/sdb:17179869184|,|vm_2_accelerated_networking:False|,|vm_2_boot_disk_size:default|,|vm_2_boot_disk_type:Standard_LRS|,|vm_2_cloud:Azure|,|vm_2_dedicated_host:False|,|vm_2_image:Canonical:UbuntuServer:16.04-LTS:latest|,|vm_2_kernel_release:4.15.0-1071-azure|,|vm_2_machine_type:Standard_B2ms|,|vm_2_num_cpus:2|,|vm_2_numa_node_count:1|,|vm_2_os_info:Ubuntu 16.04.6 LTS|,|vm_2_os_type:ubuntu1604|,|vm_2_placement_group_strategy:None|,|vm_2_preemptible:False|,|vm_2_tcp_congestion_control:cubic|,|vm_2_vm_count:1|,|vm_2_zone:westeurope|"}
