Izvajanje test-A
  Log datoteka: test-A.log
  Izhod programa: test-A.out
  Ukazna vrstica: bash Naloga1.sh status 1919 12787
  Izhodni status: 19
  Realni cas izvajanja: 137
  Uporabniski cas izvajanja: 131
  Sistemski cas izvajanja: 6
  Procesorski cas izvajanja: 137
Preverjanje test-A
  Izhodni status: ok
  Tocke: 1
