\relax 
\catcode `"\active 
\babel@aux{slovene}{}
\@writefile{toc}{\contentsline {section}{\numberline {1}Naloga}{1}\protected@file@percent }
\@writefile{toc}{\contentsline {section}{\numberline {2}Naivni pristop}{1}\protected@file@percent }
\@writefile{toc}{\contentsline {subsection}{\numberline {2.1}Postopek re\IeC {\v s}evanja}{2}\protected@file@percent }
\newlabel{eq:mp}{{3}{3}}
\@writefile{toc}{\contentsline {section}{\numberline {3}Pristop z Kabschevim algoritmom}{3}\protected@file@percent }
\@writefile{toc}{\contentsline {subsection}{\numberline {3.1}Postopek re\IeC {\v s}evanja}{4}\protected@file@percent }
