Izvajanje test-D
  Log datoteka: test-D.log
  Izhod programa: test-D.out
  Ukazna vrstica: bash Naloga1.sh userinfo root daemon bin sync games nobody test
  Izhodni status: 0
  Realni cas izvajanja: 119
  Uporabniski cas izvajanja: 30
  Sistemski cas izvajanja: 107
  Procesorski cas izvajanja: 137
Preverjanje test-D
  Izhodni status: ok
  Standardni izhod: ok
  Tocke: 1
