This is BibTeX, Version 0.99d (TeX Live 2019/Debian)
Capacity: max_strings=200000, hash_size=200000, hash_prime=170003
The top-level auxiliary file: 3naloga.aux
The style file: plain.bst
Database file #1: literatura.bib
Warning--empty journal in fe
Warning--empty journal in mos
Warning--empty journal in ebralecpdf
Warning--empty journal in tacotron
You've used 10 entries,
            2118 wiz_defined-function locations,
            540 strings with 5122 characters,
and the built_in function-call counts, 2027 in all, are:
= -- 202
> -- 70
< -- 0
+ -- 30
- -- 20
* -- 74
:= -- 399
add.period$ -- 31
call.type$ -- 10
change.case$ -- 45
chr.to.int$ -- 0
cite$ -- 14
duplicate$ -- 87
empty$ -- 166
format.name$ -- 20
if$ -- 403
int.to.chr$ -- 0
int.to.str$ -- 10
missing$ -- 4
newline$ -- 54
num.names$ -- 20
pop$ -- 49
preamble$ -- 1
purify$ -- 30
quote$ -- 0
skip$ -- 57
stack$ -- 0
substring$ -- 50
swap$ -- 1
text.length$ -- 0
text.prefix$ -- 0
top$ -- 0
type$ -- 40
warning$ -- 4
while$ -- 20
width$ -- 12
write$ -- 104
(There were 4 warnings)
