\relax 
\providecommand\hyper@newdestlabel[2]{}
\@nameuse{bbl@beforestart}
\catcode `"\active 
\providecommand\HyperFirstAtBeginDocument{\AtBeginDocument}
\HyperFirstAtBeginDocument{\ifx\hyper@anchor\@undefined
\global\let\oldcontentsline\contentsline
\gdef\contentsline#1#2#3#4{\oldcontentsline{#1}{#2}{#3}}
\global\let\oldnewlabel\newlabel
\gdef\newlabel#1#2{\newlabelxx{#1}#2}
\gdef\newlabelxx#1#2#3#4#5#6{\oldnewlabel{#1}{{#2}{#3}}}
\AtEndDocument{\ifx\hyper@anchor\@undefined
\let\contentsline\oldcontentsline
\let\newlabel\oldnewlabel
\fi}
\fi}
\global\let\hyper@last\relax 
\gdef\HyperFirstAtBeginDocument#1{#1}
\providecommand\HyField@AuxAddToFields[1]{}
\providecommand\HyField@AuxAddToCoFields[2]{}
\babel@aux{english}{}
\babel@aux{slovene}{}
\@writefile{toc}{\contentsline {chapter}{Povzetek}{}{chapter*.2}\protected@file@percent }
\babel@aux{english}{}
\@writefile{toc}{\contentsline {chapter}{Abstract}{}{chapter*.3}\protected@file@percent }
\babel@aux{slovene}{}
\citation{ebralecpdf}
\@writefile{toc}{\contentsline {chapter}{\numberline {1}Uvod}{1}{chapter.1}\protected@file@percent }
\@writefile{lof}{\addvspace {10\p@ }}
\@writefile{lot}{\addvspace {10\p@ }}
\@writefile{toc}{\contentsline {chapter}{\numberline {2}Sintetizatorji govora v sloven\IeC {\v s}\IeC {\v c}ini}{3}{chapter.2}\protected@file@percent }
\@writefile{lof}{\addvspace {10\p@ }}
\@writefile{lot}{\addvspace {10\p@ }}
\newlabel{ch0}{{2}{3}{Sintetizatorji govora v slovenščini}{chapter.2}{}}
\@writefile{toc}{\contentsline {section}{\numberline {2.1}Govorec}{3}{section.2.1}\protected@file@percent }
\@writefile{toc}{\contentsline {section}{\numberline {2.2}eBralec}{4}{section.2.2}\protected@file@percent }
\citation{wav}
\citation{wav}
\citation{taco}
\@writefile{toc}{\contentsline {chapter}{\numberline {3}Sodobni sintetizatorji govora}{5}{chapter.3}\protected@file@percent }
\@writefile{lof}{\addvspace {10\p@ }}
\@writefile{lot}{\addvspace {10\p@ }}
\newlabel{ch1}{{3}{5}{Sodobni sintetizatorji govora}{chapter.3}{}}
\@writefile{toc}{\contentsline {section}{\numberline {3.1}WaveNet}{5}{section.3.1}\protected@file@percent }
\@writefile{toc}{\contentsline {section}{\numberline {3.2}Tacotron}{5}{section.3.2}\protected@file@percent }
\@writefile{toc}{\contentsline {chapter}{\numberline {4}Opis metod in okolja}{7}{chapter.4}\protected@file@percent }
\@writefile{lof}{\addvspace {10\p@ }}
\@writefile{lot}{\addvspace {10\p@ }}
\newlabel{ch2}{{4}{7}{Opis metod in okolja}{chapter.4}{}}
\@writefile{toc}{\contentsline {chapter}{\numberline {5}Opis arhitekture za sintezo govora}{9}{chapter.5}\protected@file@percent }
\@writefile{lof}{\addvspace {10\p@ }}
\@writefile{lot}{\addvspace {10\p@ }}
\newlabel{slo}{{5}{9}{Opis arhitekture za sintezo govora}{chapter.5}{}}
\@writefile{toc}{\contentsline {chapter}{\numberline {6}Mno\IeC {\v z}ica glasovnih posnetkov}{11}{chapter.6}\protected@file@percent }
\@writefile{lof}{\addvspace {10\p@ }}
\@writefile{lot}{\addvspace {10\p@ }}
\newlabel{latex}{{6}{11}{Množica glasovnih posnetkov}{chapter.6}{}}
\@writefile{toc}{\contentsline {chapter}{\numberline {7}Treniranje na mno\IeC {\v z}ici glasovnih posnetkov}{13}{chapter.7}\protected@file@percent }
\@writefile{lof}{\addvspace {10\p@ }}
\@writefile{lot}{\addvspace {10\p@ }}
\newlabel{lit}{{7}{13}{Treniranje na množici glasovnih posnetkov}{chapter.7}{}}
\@writefile{toc}{\contentsline {chapter}{\numberline {8}Analiza rezultatov}{15}{chapter.8}\protected@file@percent }
\@writefile{lof}{\addvspace {10\p@ }}
\@writefile{lot}{\addvspace {10\p@ }}
\newlabel{PDF}{{8}{15}{Analiza rezultatov}{chapter.8}{}}
\@writefile{toc}{\contentsline {chapter}{\numberline {9}Sklepne ugotovitve}{17}{chapter.9}\protected@file@percent }
\@writefile{lof}{\addvspace {10\p@ }}
\@writefile{lot}{\addvspace {10\p@ }}
\bibstyle{plain}
\bibdata{literatura}
\bibcite{ebralecpdf}{1}
\bibcite{wav}{2}
\bibcite{taco}{3}
\@writefile{toc}{\contentsline {chapter}{Literatura}{19}{chapter.9}\protected@file@percent }
