\relax 
\providecommand\hyper@newdestlabel[2]{}
\@nameuse{bbl@beforestart}
\catcode `"\active 
\providecommand\HyperFirstAtBeginDocument{\AtBeginDocument}
\HyperFirstAtBeginDocument{\ifx\hyper@anchor\@undefined
\global\let\oldcontentsline\contentsline
\gdef\contentsline#1#2#3#4{\oldcontentsline{#1}{#2}{#3}}
\global\let\oldnewlabel\newlabel
\gdef\newlabel#1#2{\newlabelxx{#1}#2}
\gdef\newlabelxx#1#2#3#4#5#6{\oldnewlabel{#1}{{#2}{#3}}}
\AtEndDocument{\ifx\hyper@anchor\@undefined
\let\contentsline\oldcontentsline
\let\newlabel\oldnewlabel
\fi}
\fi}
\global\let\hyper@last\relax 
\gdef\HyperFirstAtBeginDocument#1{#1}
\providecommand\HyField@AuxAddToFields[1]{}
\providecommand\HyField@AuxAddToCoFields[2]{}
\citation{tts}
\citation{sts}
\citation{styletok}
\citation{tec}
\citation{fsp}
\citation{hmm}
\babel@aux{slovene}{}
\@writefile{toc}{\contentsline {section}{\numberline {1}Naravna sinteza govora z uporabo WaveNet na spektogramskih predikcijah}{1}{section.1}\protected@file@percent }
\@writefile{toc}{\contentsline {section}{\numberline {2}Tehnike sinteze govora}{1}{section.2}\protected@file@percent }
\citation{relief}
\citation{multi}
\citation{cache}
\bibstyle{plain}
\bibdata{literatura}
\bibcite{cache}{1}
\bibcite{multi}{2}
\bibcite{fsp}{3}
\@writefile{toc}{\contentsline {section}{\numberline {3}Teoreti\IeC {\v c}na in empiri\IeC {\v c}na analiza ReliefF in RReliefF}{2}{section.3}\protected@file@percent }
\@writefile{toc}{\contentsline {section}{\numberline {4}Miselni vzorec diplomske naloge}{2}{section.4}\protected@file@percent }
\@writefile{lof}{\contentsline {figure}{\numberline {1}{\ignorespaces Miselni vzorec diplomske naloge}}{3}{figure.1}\protected@file@percent }
\newlabel{fig:M1}{{1}{3}{Miselni vzorec diplomske naloge}{figure.1}{}}
\bibcite{hmm}{4}
\bibcite{relief}{5}
\bibcite{tts}{6}
\bibcite{sts}{7}
\bibcite{tec}{8}
\bibcite{styletok}{9}
