53
50
9 1
9 2
9 3
9 5
9 7
9 8
9 11
9 12
9 12
9 13
9 17
9 18
9 18
9 19
9 21
9 21
9 24
9 24
9 25
9 26
9 28
9 29
9 30
9 30
9 31
9 32
9 34
9 34
9 38
9 38
9 40
9 43
9 43
9 44
9 45
9 45
9 47
9 47
9 48
9 48
9 48
9 49
9 49
9 50
9 50
9 50
9 51
9 51
9 52
9 52
