81
62
59 6
59 6
59 11
59 11
59 12
59 13
59 17
59 18
59 18
59 19
59 20
59 20
59 23
59 24
59 25
59 26
59 27
59 29
59 32
59 34
59 35
59 36
59 36
59 37
59 37
59 38
59 39
59 39
59 40
59 40
59 41
59 43
59 43
59 44
59 49
59 49
59 51
59 56
59 58
59 58
59 59
59 61
59 62
59 62
59 63
59 64
59 65
59 66
59 66
59 68
59 68
59 69
59 70
59 70
59 72
59 74
59 74
59 75
59 77
59 78
59 80
59 80
