62
69
40 19
60 29
50 23
55 57
25 37
20 13
43 49
20 59
40 24
2 42
3 26
30 26
14 37
9 41
27 17
49 37
20 30
28 6
55 35
49 17
59 1
48 60
3 3
13 42
30 59
14 1
2 13
9 4
14 1
4 1
56 49
43 9
31 14
12 61
2 12
17 2
14 57
45 24
28 49
54 15
36 58
18 45
41 8
8 18
12 4
44 41
16 16
9 17
54 55
35 17
49 52
29 3
37 9
14 43
33 61
36 40
12 3
37 55
15 40
11 36
44 6
28 8
19 58
21 50
13 15
42 26
13 54
14 6
47 61
