84
70
1 1
1 23
1 46
3 81
5 69
8 56
8 60
9 17
9 80
13 50
15 8
15 41
15 47
17 64
18 59
20 75
22 10
22 68
24 24
25 32
26 18
26 54
27 16
28 5
29 45
32 39
33 44
38 54
42 3
43 40
44 35
44 44
44 82
45 16
46 13
46 39
47 53
51 31
52 70
55 17
56 50
58 7
58 58
59 26
60 4
60 55
60 82
61 41
63 60
65 19
65 20
66 73
68 61
68 82
70 59
71 71
72 2
75 61
76 76
77 8
77 43
78 11
79 20
79 55
80 43
80 51
80 51
81 24
81 34
82 44
