77
75
2 56
3 21
4 42
7 10
7 58
8 42
9 6
9 70
11 53
12 42
12 66
13 11
14 39
16 16
16 51
17 11
18 29
19 1
20 23
20 24
21 54
23 34
25 15
25 51
28 5
29 44
31 11
33 68
34 24
34 46
34 75
34 75
35 17
35 56
36 1
37 16
38 34
39 12
39 38
39 63
41 1
41 58
45 3
46 4
46 9
46 37
46 70
47 5
48 19
49 25
49 55
50 14
54 2
56 36
57 25
58 1
59 21
61 14
61 71
62 15
62 71
64 34
64 63
65 46
66 50
66 57
66 75
68 50
71 11
74 6
74 74
75 26
76 43
76 60
76 64
