35
94
32 1
32 1
32 1
32 1
32 1
32 1
32 2
32 3
32 3
32 3
32 3
32 4
32 4
32 4
32 4
32 4
32 4
32 5
32 6
32 7
32 7
32 7
32 8
32 8
32 8
32 8
32 9
32 9
32 9
32 10
32 10
32 11
32 11
32 12
32 12
32 12
32 13
32 13
32 13
32 13
32 14
32 15
32 15
32 16
32 16
32 16
32 16
32 16
32 16
32 17
32 17
32 17
32 18
32 18
32 19
32 19
32 19
32 20
32 20
32 20
32 21
32 21
32 23
32 23
32 24
32 24
32 25
32 25
32 26
32 26
32 26
32 27
32 28
32 28
32 29
32 29
32 29
32 29
32 29
32 29
32 30
32 30
32 30
32 31
32 32
32 32
32 32
32 33
32 33
32 33
32 34
32 34
32 34
32 34
