69
72
68 1
68 1
68 3
68 5
68 8
68 8
68 9
68 9
68 11
68 11
68 11
68 13
68 13
68 13
68 14
68 14
68 15
68 17
68 17
68 17
68 17
68 18
68 18
68 19
68 19
68 19
68 20
68 20
68 22
68 23
68 23
68 24
68 25
68 28
68 29
68 29
68 29
68 31
68 32
68 32
68 33
68 35
68 35
68 36
68 36
68 36
68 37
68 37
68 38
68 40
68 41
68 42
68 46
68 46
68 47
68 47
68 47
68 48
68 50
68 51
68 51
68 51
68 51
68 51
68 52
68 54
68 57
68 60
68 63
68 64
68 68
68 68
