93
78
84 1
84 1
84 2
84 2
84 3
84 6
84 7
84 10
84 10
84 11
84 13
84 16
84 17
84 17
84 17
84 17
84 19
84 21
84 21
84 23
84 26
84 26
84 28
84 31
84 35
84 36
84 37
84 39
84 41
84 41
84 43
84 43
84 46
84 46
84 47
84 48
84 49
84 50
84 51
84 51
84 52
84 52
84 52
84 56
84 56
84 57
84 58
84 61
84 62
84 62
84 63
84 63
84 64
84 65
84 65
84 66
84 68
84 69
84 69
84 70
84 71
84 71
84 72
84 72
84 74
84 76
84 77
84 77
84 77
84 78
84 78
84 78
84 82
84 83
84 87
84 87
84 89
84 89
