Izvajanje test-H
  Log datoteka: test-H.log
  Izhod programa: test-H.out
  Ukazna vrstica: ./Naloga2 forktree
  Izhodni status: 0
  Realni cas izvajanja: 4
  Uporabniski cas izvajanja: 0
  Sistemski cas izvajanja: 4
  Procesorski cas izvajanja: 4
Preverjanje test-H
  Izhodni status: ok
  Standardni izhod: err
  Tocke: 0
