0

0
0

0
0
0

REMOVE OLD SPACE 0
REMOVE CURRENT SIZE 10
REMOVE NEW SPACE 10
MAX SIZE IS 10 AND SPACE IS 10
NEW INDEX 0
NEW SPACE 10
OLD SPACE 0
MAXNODESIZE 10

0
0

0
0
0

0
0
0
0

0
0
0
0
1

0
0
0
0
1
0

0
0
0
0
1
0
1

REMOVE OLD SPACE 0
REMOVE CURRENT SIZE 10
REMOVE NEW SPACE 10
MAX SIZE IS 10 AND SPACE IS 10
NEW INDEX 0
NEW SPACE 10
OLD SPACE 0
MAXNODESIZE 10

0
0
0
0
1
0

0
0
0
0
1
0
1

0
0
0
0
1
0
1
1

0
0
0
0
1
0
2
1
2

REMOVE OLD SPACE 2
REMOVE CURRENT SIZE 8
REMOVE NEW SPACE 10
MAX SIZE IS 10 AND SPACE IS 10
NEW INDEX 0
NEW SPACE 10
OLD SPACE 2
MAXNODESIZE 10

0
0
0
0
1
0
2
0

0
0
0
0
1
0
2
0
2

0
0
0
0
1
0
3
0
2
3

0
0
0
0
1
0
2
0
2
4

0
0
0
0
1
1
2
0
2
4

0
0
0
0
1
1
2
0
3
4

0
0
0
0
1
1
2
0
3
5

0
0
0
0
1
1
2
1
3
5

0
0
0
0
1
1
2
1
4
5

0
0
0
0
1
1
2
1
5
5

REMOVE OLD SPACE 0
REMOVE CURRENT SIZE 10
REMOVE NEW SPACE 10
MAX SIZE IS 10 AND SPACE IS 10
NEW INDEX 0
NEW SPACE 10
OLD SPACE 0
MAXNODESIZE 10

0
0
0
0
1
1
2
1
5
4

0
0
0
0
1
1
2
2
5
4

0
0
0
0
1
1
2
2
6
4

0
0
0
0
1
2
2
2
6
4

0
0
0
0
1
2
3
2
6
4

0
0
0
0
1
3
3
2
6
4

0
0
0
0
1
3
3
2
5
5

0
0
0
0
1
3
3
2
5
6

REMOVE OLD SPACE 4
REMOVE CURRENT SIZE 6
REMOVE NEW SPACE 10
MAX SIZE IS 10 AND SPACE IS 10
NEW INDEX 0
NEW SPACE 10
OLD SPACE 4
MAXNODESIZE 10

0
0
0
0
1
2
3
2
5
6

0
0
0
0
1
2
3
2
5
7

0
0
0
0
1
3
3
2
5
7

0
0
0
0
1
4
3
2
5
7

0
0
0
0
1
4
3
2
6
7

0
0
0
0
1
5
3
2
6
7

0
0
0
0
1
5
3
2
5
8

0
0
0
0
1
6
3
2
5
8

0
0
0
0
1
6
3
2
4
9

0
0
0
0
1
5
3
2
4
10

0
0
0
0
1
5
3
3
4
10

0
0
0
0
1
4
3
3
4
11

0
0
0
0
1
4
3
3
4
12

0
0
0
0
1
4
4
3
4
12

0
0
0
0
1
4
4
3
5
12

0
0
0
0
1
5
4
3
5
12

REMOVE OLD SPACE 0
REMOVE CURRENT SIZE 9
REMOVE NEW SPACE 9
MAX SIZE IS 10 AND SPACE IS 9
NEW INDEX 1
NEW SPACE 9
OLD SPACE 0
MAXNODESIZE 10

1
0
0
0
1
5
4
3
5
11

REMOVE OLD SPACE 0
REMOVE CURRENT SIZE 4
REMOVE NEW SPACE 4
MAX SIZE IS 10 AND SPACE IS 4
NEW INDEX 6
NEW SPACE 4
OLD SPACE 0
MAXNODESIZE 10

1
0
0
0
1
6
4
3
5
10

1
0
0
0
1
6
4
3
5
11

1
0
0
0
1
6
3
3
5
12

1
0
0
0
1
6
3
3
5
13

REMOVE OLD SPACE 3
REMOVE CURRENT SIZE 7
REMOVE NEW SPACE 10
MAX SIZE IS 10 AND SPACE IS 10
NEW INDEX 0
NEW SPACE 10
OLD SPACE 3
MAXNODESIZE 10

1
0
0
0
1
6
2
3
5
13

1
0
0
0
1
6
2
3
4
14

1
0
0
0
1
6
2
3
4
15

1
0
0
0
1
6
2
3
4
16

REMOVE OLD SPACE 1
REMOVE CURRENT SIZE 9
REMOVE NEW SPACE 10
MAX SIZE IS 10 AND SPACE IS 10
NEW INDEX 0
NEW SPACE 10
OLD SPACE 1
MAXNODESIZE 10

1
0
0
0
1
6
2
3
3
16

1
0
0
0
1
6
2
3
3
17

1
0
0
0
1
6
2
3
3
18

1
0
0
0
1
6
2
3
3
19

REMOVE OLD SPACE 4
REMOVE CURRENT SIZE 6
REMOVE NEW SPACE 10
MAX SIZE IS 10 AND SPACE IS 10
NEW INDEX 0
NEW SPACE 10
OLD SPACE 4
MAXNODESIZE 10

1
0
0
0
1
5
2
3
3
19

1
0
0
0
1
5
2
3
3
20

1
0
0
0
1
5
2
3
3
21

1
0
0
0
1
5
2
3
3
22

1
0
0
0
1
5
2
3
3
23

REMOVE OLD SPACE 0
REMOVE CURRENT SIZE 10
REMOVE NEW SPACE 10
MAX SIZE IS 10 AND SPACE IS 10
NEW INDEX 0
NEW SPACE 10
OLD SPACE 0
MAXNODESIZE 10

1
0
0
0
1
5
2
3
3
22

REMOVE OLD SPACE 0
REMOVE CURRENT SIZE 10
REMOVE NEW SPACE 10
MAX SIZE IS 10 AND SPACE IS 10
NEW INDEX 0
NEW SPACE 10
OLD SPACE 0
MAXNODESIZE 10

1
0
0
0
1
5
2
3
3
21

1
0
0
0
1
5
2
3
3
22

1
0
0
0
1
5
2
3
3
23

1
0
0
0
1
5
2
3
3
24

1
0
0
0
1
5
2
3
3
25

1
0
0
0
1
5
2
3
3
26

REMOVE OLD SPACE 0
REMOVE CURRENT SIZE 3
REMOVE NEW SPACE 3
MAX SIZE IS 10 AND SPACE IS 3
NEW INDEX 7
NEW SPACE 3
OLD SPACE 0
MAXNODESIZE 10

1
0
0
0
1
5
3
3
3
25

1
0
0
0
1
5
3
3
3
26

1
0
0
0
1
5
3
3
3
27

1
0
0
0
1
5
3
3
3
28

1
0
0
0
1
5
3
3
3
29

REMOVE OLD SPACE 0
REMOVE CURRENT SIZE 3
REMOVE NEW SPACE 3
MAX SIZE IS 10 AND SPACE IS 3
NEW INDEX 7
NEW SPACE 3
OLD SPACE 0
MAXNODESIZE 10

1
0
0
0
1
5
4
3
3
28

1
0
0
0
1
5
4
3
3
29

0
0
0
0
1
5
4
3
4
29

REMOVE OLD SPACE 0
REMOVE CURRENT SIZE 10
REMOVE NEW SPACE 10
MAX SIZE IS 10 AND SPACE IS 10
NEW INDEX 0
NEW SPACE 10
OLD SPACE 0
MAXNODESIZE 10

0
0
0
0
1
5
4
3
4
28

0
0
0
0
1
5
4
3
3
29

0
0
0
0
1
5
3
3
3
30

0
0
0
0
1
5
4
3
3
30

0
0
0
0
1
5
4
3
3
31

REMOVE OLD SPACE 0
REMOVE CURRENT SIZE 10
REMOVE NEW SPACE 10
MAX SIZE IS 10 AND SPACE IS 10
NEW INDEX 0
NEW SPACE 10
OLD SPACE 0
MAXNODESIZE 10

0
0
0
0
1
5
4
3
3
30

0
0
0
0
1
6
4
3
3
30

0
0
0
0
1
5
4
3
3
31

0
0
0
0
1
5
5
3
3
31

REMOVE OLD SPACE 0
REMOVE CURRENT SIZE 10
REMOVE NEW SPACE 10
MAX SIZE IS 10 AND SPACE IS 10
NEW INDEX 0
NEW SPACE 10
OLD SPACE 0
MAXNODESIZE 10

0
0
0
0
1
5
5
3
3
30

0
0
0
0
1
5
5
3
4
30

0
0
0
0
1
5
5
3
3
31

0
0
0
0
1
6
5
3
3
31

0
0
0
0
1
5
5
3
3
32

0
0
0
0
1
5
5
4
3
32

REMOVE OLD SPACE 0
REMOVE CURRENT SIZE 4
REMOVE NEW SPACE 4
MAX SIZE IS 10 AND SPACE IS 4
NEW INDEX 6
NEW SPACE 4
OLD SPACE 0
MAXNODESIZE 10

0
0
0
0
1
6
5
4
3
31

0
0
0
0
1
6
5
4
4
31

0
0
0
0
0
6
5
4
4
32

0
0
0
0
0
6
6
4
4
32

REMOVE OLD SPACE 0
REMOVE CURRENT SIZE 5
REMOVE NEW SPACE 5
MAX SIZE IS 10 AND SPACE IS 5
NEW INDEX 5
NEW SPACE 5
OLD SPACE 0
MAXNODESIZE 10

0
0
0
0
1
6
6
4
4
31

0
0
0
0
1
6
6
4
4
31

