\relax 
\catcode `"\active 
\babel@aux{slovene}{}
\@input{preface.aux}
\@input{poglavje1.aux}
\bibstyle{ieeetr}
\bibdata{mro}
\bibcite{1_spec}{1}
\bibcite{1_cloudspectator}{2}
\bibcite{1_geekbench3}{3}
\bibcite{1_fio}{4}
\bibcite{1_ioping}{5}
\bibcite{1_publiccb}{6}
\bibcite{1_cloudperformancebenchmark}{7}
\bibcite{1_perfkit}{8}
