\begin{thebibliography}{1}

\bibitem{1_spec}
``SPEC benchmark tool.''
  https://www.spec.org/cloud_iaas2018/docs/faq.html, Marec 2020.

\bibitem{1_cloudspectator}
``Cloud Spectator''
  https://cloudspectator.com, Marec 2020.

\bibitem{1_geekbench3}
``Geekbench 3''
  https://www.geekbench.com/geekbench3/, Marec 2020.

\bibitem{1_fio}
``Fio''
  https://www.storagereview.com/fio-flexible-i-o-tester-synthetic-benchmark, Marec 2020.

\bibitem{1_ioping}
``IOPing''
  https://github.com/koct9i/ioping, Marec 2020.

\bibitem{1_publiccb}
``Public Cloud Benchmark''
  https://tbri.com/research/public-cloud-benchmark/, Marec 2020.

\bibitem{1_cloudperformancebenchmark}
``Cloud Performance Benchmark''
  https://www.thousandeyes.com/research/cloud-performance, Marec 2020.

\bibitem{1_perfkit}
``Perfkit Benchmarker''
  https://github.com/GoogleCloudPlatform/PerfKitBenchmarker, Marec 2020.

\end{thebibliography}
