\relax 
\@writefile{toc}{\contentsline {section}{\numberline {0.1}Introduction}{1}}
\@writefile{lof}{\contentsline {figure}{\numberline {1}{\ignorespaces Pogled na povezavo med obla\IeC {\v c}no storitvijo in klienti}}{1}}
\newlabel{table:azure}{{1}{1}}
\citation{1_spec}
\citation{1_cloudspectator}
\citation{1_geekbench3}
\citation{1_fio}
\@writefile{toc}{\contentsline {section}{\numberline {0.2}Osnove obla\IeC {\v c}nih Benchmark programov}{2}}
\@writefile{toc}{\contentsline {subsection}{\numberline {0.2.1}SPEC Cloud IaaS 2018}{2}}
\@writefile{toc}{\contentsline {subsection}{\numberline {0.2.2}Cloud Spectator}{2}}
\@writefile{toc}{\contentsline {subsection}{\numberline {0.2.3}Geekbench 3}{2}}
\@writefile{toc}{\contentsline {subsection}{\numberline {0.2.4}Fio}{2}}
\citation{1_ioping}
\citation{1_publiccb}
\citation{1_cloudperformancebenchmark}
\citation{1_perfkit}
\@writefile{toc}{\contentsline {subsection}{\numberline {0.2.5}IOPing}{3}}
\@writefile{toc}{\contentsline {subsection}{\numberline {0.2.6}Public Cloud Benchmark}{3}}
\@writefile{toc}{\contentsline {subsection}{\numberline {0.2.7}Cloud Performance Benchmark}{3}}
\@writefile{toc}{\contentsline {subsection}{\numberline {0.2.8}PerfKit Benchmarker}{4}}
\@writefile{toc}{\contentsline {section}{\numberline {0.3}Povzetek orodij}{4}}
\newlabel{table:prCor}{{0.3}{4}}
\@writefile{lot}{\contentsline {table}{\numberline {1}{\ignorespaces Pregled cen orodij.}}{4}}
\@writefile{toc}{\contentsline {section}{\numberline {0.4}Implementacija merilnega okolja}{4}}
\@writefile{toc}{\contentsline {section}{\numberline {0.5}Rezultati zmogljivosti omre\IeC {\v z}ja}{5}}
\@writefile{lot}{\contentsline {table}{\numberline {2}{\ignorespaces Uporabljeni benchmarki za zmogljivost omre\IeC {\v z}ja.}}{5}}
\newlabel{table:upBen}{{2}{5}}
\@writefile{toc}{\contentsline {subsection}{\numberline {0.5.1}Opis povezav}{5}}
\@writefile{toc}{\contentsline {subsection}{\numberline {0.5.2}Ping}{5}}
\@writefile{lot}{\contentsline {table}{\numberline {3}{\ignorespaces Latenca med Azure instancami.}}{5}}
\@writefile{lot}{\contentsline {table}{\numberline {4}{\ignorespaces Latenca med lokalnim ra\IeC {\v c}unalnikom in Azure instanco.}}{5}}
\@writefile{toc}{\contentsline {subsection}{\numberline {0.5.3}Traceroute}{5}}
\@writefile{lof}{\contentsline {figure}{\numberline {2}{\ignorespaces Ping skozi dan.}}{6}}
\@writefile{toc}{\contentsline {subsection}{\numberline {0.5.4}Speedtest}{6}}
\@writefile{toc}{\contentsline {subsection}{\numberline {0.5.5}Iperf}{6}}
\@writefile{toc}{\contentsline {subsection}{\numberline {0.5.6}Testiranje stre\IeC {\v z}nika z vzporednimi klienti}{6}}
\@writefile{lof}{\contentsline {figure}{\numberline {3}{\ignorespaces Traceroute do Azure instance}}{7}}
\@writefile{lof}{\contentsline {figure}{\numberline {4}{\ignorespaces Povpre\IeC {\v c}ni \IeC {\v c}as prenosa posamezne datoteke pri ve\IeC {\v c}ih vzporednih povezavah.}}{7}}
\newlabel{table:parallelClient}{{4}{7}}
\@writefile{toc}{\contentsline {section}{\numberline {0.6}Rezultati zmogljivosti procesorja}{7}}
\@writefile{lot}{\contentsline {table}{\numberline {5}{\ignorespaces Uporabljeni benchmarki za zmogljivost procesorja.}}{8}}
\newlabel{table:upBen}{{5}{8}}
\@writefile{toc}{\contentsline {subsection}{\numberline {0.6.1}Coremark}{8}}
\@writefile{toc}{\contentsline {subsection}{\numberline {0.6.2}Copy throughput}{8}}
\@writefile{toc}{\contentsline {subsection}{\numberline {0.6.3}Iskanje pravih \IeC {\v s}tevil v intervalu}{8}}
\@writefile{toc}{\contentsline {section}{\numberline {0.7}Rezultati zmogljivosti vhodno/izhodnih naprav}{8}}
\@writefile{lot}{\contentsline {table}{\numberline {6}{\ignorespaces Uporabljeni benchmarki za zmogljivost vhodno/izhodnih naprav.}}{8}}
\newlabel{table:upBen}{{6}{8}}
\@writefile{toc}{\contentsline {subsection}{\numberline {0.7.1}Fio}{8}}
\@writefile{lof}{\contentsline {figure}{\numberline {5}{\ignorespaces Testni program za testiranje zmogljivosti procesorja.}}{9}}
\newlabel{table:cpuCode}{{5}{9}}
\@writefile{lof}{\contentsline {figure}{\numberline {6}{\ignorespaces \IeC {\v C}as izvajanja testnega progama na razli\IeC {\v c}nih sistemih.}}{9}}
\newlabel{table:cpuTest}{{6}{9}}
\@writefile{lot}{\contentsline {table}{\numberline {7}{\ignorespaces Sekven\IeC {\v c}no pisanje.}}{10}}
\@writefile{lot}{\contentsline {table}{\numberline {8}{\ignorespaces Sekven\IeC {\v c}no branje.}}{10}}
\@writefile{lot}{\contentsline {table}{\numberline {9}{\ignorespaces Naklju\IeC {\v c}no pisanje.}}{10}}
\@writefile{lot}{\contentsline {table}{\numberline {10}{\ignorespaces Naklju\IeC {\v c}no branje.}}{10}}
\@writefile{lot}{\contentsline {table}{\numberline {11}{\ignorespaces Naklju\IeC {\v c}no paralelno branje.}}{10}}
\@writefile{toc}{\contentsline {subsection}{\numberline {0.7.2}Testiranje zmogljivosti diska z vzporednimi klienti}{10}}
\@writefile{lof}{\contentsline {figure}{\numberline {7}{\ignorespaces Povpre\IeC {\v c}ni \IeC {\v c}as nalaganja posamezne datoteke pri ve\IeC {\v c}ih vzporednih prenosov datoteke.}}{11}}
\newlabel{table:parallelWrite}{{7}{11}}
\@writefile{lof}{\contentsline {figure}{\numberline {8}{\ignorespaces \IeC {\v S}tevilo bralnih in pisalnih operacij na disk na sekundo.}}{11}}
\newlabel{table:numOfDiskOpPerSec}{{8}{11}}
\@writefile{lof}{\contentsline {figure}{\numberline {9}{\ignorespaces Velikost podatkov pri zapisovanju med testiranjem}}{12}}
\newlabel{table:bytesWritten}{{9}{12}}
\@setckpt{poglavje1}{
\setcounter{page}{13}
\setcounter{equation}{0}
\setcounter{enumi}{0}
\setcounter{enumii}{0}
\setcounter{enumiii}{0}
\setcounter{enumiv}{0}
\setcounter{footnote}{0}
\setcounter{mpfootnote}{0}
\setcounter{part}{0}
\setcounter{chapter}{0}
\setcounter{section}{7}
\setcounter{subsection}{2}
\setcounter{subsubsection}{0}
\setcounter{paragraph}{0}
\setcounter{subparagraph}{0}
\setcounter{figure}{9}
\setcounter{table}{11}
\setcounter{parentequation}{0}
\setcounter{lstnumber}{1}
\setcounter{float@type}{8}
\setcounter{definicija}{0}
\setcounter{zgled}{0}
\setcounter{lstlisting}{0}
}
