IMRE <IMRE> SELLS STOCK TO EUROPEAN INSTITUTIONS
SEATTLE, March 6 -
IMRE Corp said it has received
commitments for a group of European institutions to buy about
400,000 IMRE shares for 2,500,000 dlrs, with closing expected
on March 16.
                                                   
 Reuter
