REPUBLIC AUTOMOTIVE PARTS <RAUT> 4TH QTR LOSS
BRENTWOOD, Tenn., March 2 -
Shr loss 85 cts vs loss 88 cts
    Net loss 2,410,000 vs loss 2,466,0000
    Revs 24.0 mln vs 23.9 mln
    Year
    Shr loss 1.18 dlrs vs loss 81 cts
    Net loss 3,338,000 vs loss 2,275,000
    Revs 101.4 mln vs 112.3 mln
 Reuter
