UNILEVER PLC AND NV 1986 4TH QTR TO DEC 31
    LONDON, March 3
    Unilever Plc share 49.57p vs 44.19p, making 177.55p vs
137.96p for full year.
    Unilever NV share 10.69 guilders vs 11.82 guilders, making
38.22 guilders vs 36.79 guilders.
    Unilever Plc final div 35.18p, making 50.17p vs 38.62p.
    Unilever NV final div 10.67 guilders, making 15.33 guilders
vs 14.82 guilders.
    Combined pre-tax profit 276 mln stg vs same, making 1.14
billion stg vs 953 mln.
    The two companies proposed a five for one share split.
    Combined fourth quarter pre-tax profit 1.10 billion
guilders vs 1.11 billion, making 3.69 billion guilders vs 3.81
billion.
    Operating profit 259 mln stg vs 265 mln, making 1.12
billion stg vs 949 mln.
    Tax 109 mln stg vs 105 mln, making 468 mln vs 394 mln. Tax
adjustments 19 mln stg credit vs nil, making 26 mln stg credit
vs three mln debit.
    Attributable profit 185 mln stg vs 165 mln, making 664 mln
vs 516 mln.
    Full year 1986 turnover 17.14 billion stg vs 16.69 billion.
 REUTER
