ASHTON-TATE <TATE> 4TH QTR NET
TORRANCE, Calif., March 3 -
Shr 43 cts vs 30 cts
    Net 10.6 mln vs 5,967,000
    Revs 62.9 mln vs 41.5 mln
    Avg shrs 200.7 mln vs 20.2 mln
    Year
    Shr 1.26 dlrs vs 85 cts
    Net 30.1 mln vs 16.6 mln
    Revs 210.8 mln vs 121.6 mln
    Avg shrs 23.9 mln vs 19.4 mln
    NOTE: Share adjusted for January 1987 two-for-one split.
 Reuter
