FARMERS GROUP INC <FGRP> 4TH QTR NET
LOS ANGELES, Feb 26 -
Shr 80 cts vs 72 cts
    Net 55,513,000 vs 48,741,000
    Revs 290.9 mln vs 264.2 mln
    Year
    Shr 3.09 dlrs vs 2.72 dlrs
    Net 213,470,000 vs 184,649,000
    Revs 1.12 billion vs 992.9 mln
    Avg shrs 69,127,000 vs 68,004,000
 Reuter
