F.W. WOOLWORTH CO <Z> 4TH QTR JAN 31 NET
NEW YORK, March 3 -
Shr 1.78 dlrs vs 1.64 dlrs
    Net 117 mln vs 106 mln
    Sales 2.02 billion vs 1.85 billion
    Avg shrs 65.6 mln vs 63.9 mln
    Year
    Shr 3.25 dlrs vs 2.75 dlrs
    Net 214 mln vs 177 mln
    Sales 6.50 billion vs 5.96 billion
    Avg shrs 65.6 mln vs 63.9 mln
    NOTE: Share data restated to reflect two for one stock
split in May 1986
 Reuter
