CHARMING SHOPPES INC <CHRS> 4TH QTR JAN 31 NET
BENSALEM, Penn., March 3 -
Shr 28 cts vs 22 cts
    Net 14 mln vs 10.6 mln
    Revs 163.8 mln vs 127.3 mln
    Year
    Shr 81 cts vs 59 cts
    Net 40.5 mln vs 28.7 mln
    Revs 521.2 mln vs 391.6 mln
 Reuter
