ANITEC IMAGE TECHNOLOGY CORP <ANTC> 2ND QTR NET
BINGHAMTON, N.Y., March 3 -
Shr 33 cts vs 28 cts
    Net 3,722,000 vs 3,103,000
    Sales 33.0 mln vs 31.8 mln
    Avg shrs 11.2 mln vs 11.1 mln
    1st half
    Shr 68 cts vs 58 cts
    Net 7,585,000 vs 6,346,000
    Sales 65.9 mln vs 61.3 mln
    Avg shrs 11.2 mln vs 11.0 mln
    NOTE: Share adjusted for three-for-two October 1986 stock
split.
 Reuter
