ADC TELECOMMUNICATIONS INC <ADCT> 1ST QTR NET
MINNEAPOLIS, March 3 -
Periods ended Jan 31
    Shr 28 cts vs 35 cts
    Net 2,374,000 vs 2,987,000
    Sales 35.2 mln vs 34 mln
    Backlog 36.8 mln vs 33.9 mln
 Reuter
