SUPRADUR COS INC <SUPD> YEAR NET
RYE, N.Y., March 3 -
Oper shr 1.58 dlrs vs 77 cts
    Oper net 1,648,000 vs 817,000
    Sales 25.7 mln vs 20.5 mln
    NOTE: Net excludes discontinued operations gain 451,000
dlrs vs loss 4,310,000 dlrs.
 Reuter
