WILLCOX AND GIBBS INC <WG> 4TH QTR NET
NEW YORK, March 3 -
Shr 42 cts vs 76 cts
    Net 2.3 mln vs 3.3 mln
    Revs 72.3 mln vs 59.8 mln
    Year
    Shr 1.48 dlrs vs 2.59 dlrs
    Net 7.6 mln vs 11.1 mln
    Revs 261.7 mln vs 224.7 mln
    NOTE: 1985 net includes extraordinary gain of 1.5 mln dlrs
or 35 cts per share in 4th qtr and 5.1 mln or 1.19 dlrs for the
year.
   
 Reuter
