DATAMAG INC <DMAG> 1ST QTR DEC 31 LOSS
SCOTTSDALE, Ariz., March 3 -
Net loss 92,623 vs profit 11,209
    Sales 93,483 vs 189,388
    Note: per share data not available, as company went public
in January, 1987.
 Reuter
