KAY JEWELERS INC <KJI> 4TH QTR NET
ALEXANDRIA, Va., March 3 -
Shr 1.62 dlrs vs 1.33 dlrs
    Net 10.3 mln vs 8,459,000
    Revs 127.5 mln vs 95.7 mln
    Year
    Shr 1.52 dlrs vs 1.20 dlrs
    Net 9,669,000 vs 7,481,000
    Revs 278.1 mln vs 232.00 mln
          
 Reuter
