FERTILITY AND GENETICS RESEARCH <BABY> 1ST QTR
CHICAGO, March 3 -
Periods ended December 31
    Shr loss 10 cts vs loss seven cts
    Net loss 316,289 vs loss 189,140
    Revs 61,762 vs 8,934
 Reuter
