AMERICAN VANGUARD CORP <AMGD> YEAR NET
LOS ANGELES, March 3 -
Shr 57 cts vs 27 cts
    Net 1,002,000 vs 470,000
    Sales 15.9 mln vs 12.0 mln
    Note: 4th qtr figures not given.
   
 Reuter
