<IVACO INC> YEAR NET
MONTREAL, Feb 26-
Shr 1.11 dlrs vs 1.04 dlrs
    Net 44,092,000 vs 35,145,000
    Revs 1.94 billion vs 1.34 billion
    Note: 1986 results include extraordinary gain of 1,035,000
dlrs or six cts a share from secondary share offering of Canron
unit.
 Reuter
