<TIMMINCO LTD> YEAR NET
TORONTO, March 3 -
Oper shr 33 cts vs 33 cts
    Oper net 3,330,000 vs 2,969,000
    Revs 95.9 mln vs 92.0 mln
    Avg shrs 8,610,068 vs 7,603,219
    Note: 1986 net excludes extraordinary gain of 577,000 dlrs
or seven cts shr vs yr-ago gain of 71,000 dlrs or one ct shr.
 Reuter
