BRASCAN LTD <BRS.A> 4TH QTR NET
TORONTO, March 3 -
Shr 50 cts vs 46 cts
    Net 43.0 mln vs 34.8 mln
    YEAR
    Shr 1.55 dlrs vs 1.38 dlrs
    Net 136.8 mln vs 112.9 mln
    Note: Holding company.
 Reuter
