CASTLE AND COOKE INC <CKE> 4TH QTR LOSS
LOS ANGELES, March 4 -
Shr loss 76 cts vs loss 21 cts
    Net loss 31.9 mln vs loss 3,288,000
    Revs 380.2 mln vs 311.5 mln
    Avg shrs 47.1 mln vs 41.2 mln
    Year
    Shr profit 56 cts vs profit 56 cts
    Net profit 43,925,000 vs profit 46,433,000
    Rev 1.74 billion vs 1.60 billion
    Avg shares 43,602,000 vs 41,014,000
    NOTE: Fourth quarter includes after tax loss from
discontinued Flexi-Van operations of 33.9 mln dlrs. Primary
earnings per share data calculated after deducting preferred
dividend requirements.
 Reuter
