VOICEMAIL INTERNATIONAL INC 4TH QTR LOSS
CUPERTINO, Calif., March 4 -
Shr loss 21 cts vs loss 14 cts
    Net loss 838,069 vs loss 433,875
    Revs 1,080,068 vs 1,793,398
    Avg shrs 4,004,826 vs 3,172,537
    12 mths
    Shr loss 39 cts vs 11 cts
    Net loss 1,387,500 vs loss 334,463
    Revs 6,456,882 vs 5,605,680
    Avg shrs 3,542,217 vs 3,071,456
 Reuter
