MERRIMAC INDUSTRIES INC <MMAC> 4TH QTR NET
WEST CALDWELL, N.J., March 4 -
Shr five cts vs 29 cts
    Net 92,641 vs 466,668
    Sales 4,448,011 vs 4,122,301
    Year
    Shr 34 cts vs 1.16 dlrs
    Net 553,310 vs 1,864,417
    Sales 16.3 mln vs 16.7 mln
 Reuter
