DRESS BARN INC <DBRN> 2ND QTR JAN 24 NET
STAMFORD, Conn., March 4 -
Shr 30 cts vs 21 cts
    Net 3,358,000 vs 2,276,000
    Sales 43.3 mln vs 33.5 mln
    1st half
    Shr 60 cts vs 42 cts
    Net 6,654,000 vs 4,638,000
    Sales 86.6 mln vs 66.4 mln
    NOTE: Share adjusted for three-for-two stock split in May
1986.
 Reuter
