STANLINE INC <STAN> 1ST QTR JAN 31 NET
NORWALK, Conn., March 4 -
Shr 20 cts vs 15 cts
    Net 345,970 vs 257,252
    Revs 14.0 mln vs 13.4 mln
    NOTE: Share adjusted for five pct stock dividend in
December 1986.
 Reuter
