COLECO INDUSTRIES INC <CLO> 4TH QTR
WEST HARTFORD, Conn., FEb 26 -
Shr loss 6.48 DLS VS PROFIT 23 CTS
    Net loss 110.6 mln vs profit 4.1 mln
    Revs 74.0 mln vs 152.0 mln
    Year
    Shr loss 6.52 dlrs vs profit 3.87 dlrs
    net loss 111.2 mln vs profit 64.2 mln
    Revs 501.0 mln vs 776.0 mln
 Reuter
