WEBCOR ELECTRONICS INC <WER> 3RD QTR DEC 31
GARDEN CITY, N.Y., March 4 -
Shr loss 51 cts vs loss 44 cts
    Net loss 1.8 mln vs loss 1.5 mln
    Revs 3.1 vs 5.4 mln
    Nine months
    Shr loss 1.16 dlrs vs loss 1.33 dlrs
    Net loss 4.0 mln vs loss 4.6 mln
    Revs 9.9 mln vs 12.3 mln
 Reuter
