SUPREME EQUIPMENT/SYSTEMS CORP <SEQP> 2ND QTR
BROOKLYN, N.Y., March 4 -
Shr 61 cts vs 18 cts
    Net 670,000 vs 194,000
    Revs 10.7 mln vs 10.4 mln
    Six months
    Shr 73 cts vs 35 cts
    Net 798,000 vs 377,000
    Revs 19.5 mln vs 19.8 mln
    NOTE:1987 net includes gain of 362,000 dlrs in 2nd qtr and
431,000 dlrs in six months from tax loss carryforward.
 Reuter
