DAHLBERG INC <DAHL> 4TH QTR NET
GOLDEN VALLEY, MINN., Feb 26 -
Shr profit 10 cts vs loss seven cts
    Net profit 286,870 vs loss 156,124
    Revs 10.0 mln vs 7,577,207
    Year
    Shr profit five cts vs profit 42 cts
    Net profit 160,109 vs profit 906,034
    Revs 38.1 mln vs 31.2 mln
    Avg shrs 2.9 mln vs 2.2 mln
    NOTE: 1986 year includes 53 weeks.
 Reuter
