DANAHER CORP <DHR> 4TH QTR NET
WASHINGTON, March 4 -
Shr 71 cts vs 43 cts
    Net 7,274,000 vs 4,447,000
    Rev 161.6 mln vs 77.6 mln
    Year
    Shr 1.51 dlrs vs 1.32 dlrs
    Net 15,401,000 vs 13,525,000
    Rev 454.0 mln vs 304.9 mln
   
 Reuter
