<WESTERN SECURITY BANK> 4TH QTR NET
TOLUCA LAKE, Calif., March 4 -
Shr profit ten cts vs loss six cts
    Net profit 43,000 vs loss 26,000
    Year
    Shr profit 46 cts vs profit 12 cts
    Net profit 193,294 vs profit 51,029
    Assets 44.4 mln vs 25.3 mln
    Deposits 40.0 mln vs 21.4 mln
    Loans 25.3 mln vs 15.2 mln
 Reuter
