<KELTIC INC> YEAR NET
TORONTO, March 5 -
Shr 99 cts vs 1.25 dlrs
    Net 418,733 vs 235,572
    Revs 2,777,425 vs 2,024,116
    Note: 1986 shr after November, 1986 600,000 class A
subordinate floating share issue
 Reuter
