AMERICAN SOFTWARE INC <AMSWA> 3RD QTR JAN 31 NET
ATLANTA, March 5 -
Shr 42 cts vs 19 cts
    Net 2,903,000 vs 1,307,000
    Revs 13.1 mln vs 8,937,000
    Avg shrs 6,877,360 vs 6,874,970
    Nine mths
    Shr 98 cts vs 62 cts
    Net 6,740,000 vs 4,085,000
    Revs 33.9 mln vs 27.8 mln
    Avg shrs 6,875,706 vs 6,605,879
 Reuter
