<CANADIAN IMPERIAL BANK OF COMMERCE> 1ST QTR
TORONTO, March 5 -
Period ended January 31
    Shr 61 cts vs 64 cts
    Shr diluted 60 cts vs 60 cts
    Net 96.5 mln vs 87.0 mln
    Loans 44.87 billion vs 48.07 billion
    Deposits 69.86 billion vs 68.45 billion
    Assets 83.92 billion vs 78.93 billion
    Note: shr after preferred dividends
 Reuter
