<GSW INC> YEAR NET
TORONTO, Feb 26 -
Oper shr 2.16 dlrs vs 2.07 dlrs
    Oper net 8,037,000 vs 7,710,000
    Revs 136.4 mln vs 133.3 mln
    Note: 1986 net excludes extraordinary gain of 13 mln dlrs
or 3.50 dlrs shr from sale of <Camco Inc> shares vs yr-ago loss
of 4.3 mln dlrs or 1.14 dlrs shr.
 Reuter
