LTX CORP <LTXX> 2ND QTR JAN 31 LOSS
WESTWOOD, Mass., March 5 -
Shr loss 28 cts vs loss 32 cts
    Net loss 2,585,000 vs loss 2,885,000
    Sales 27.6 mln vs 23.5 mln
    Avg shrs 9,352,000 vs 9,049,000
    1st half
    Shr loss 63 cts vs loss 94 cts
    Net loss 5,867,000 vs loss 8,405,000
    Sales 51.9 mln vs 43.7 mln
    Avg shrs 9,349,000 vs 8,966,000
    NOTE: Prior year net includes tax credits of 1,827,000 dlrs
in quarter and 5,347,000 dlrs in half.
 Reuter
