CARMEL CONTAINER SYSTEMS LTD<KML> YEAR OPER NET
NEW YORK, March 5 -
Oper shr 1.18 dlrs vs 58 cts
    Oper net 2,266,000 vs 1,037,000
    Revs 45.8 mln vs 41.4 mln
    Avg shrs 1,924,000 vs 1,800,000
    NOTE: Excludes gain of 73,000 dlrs vs 290,000 dlrs from
benefit of tax loss carryforward.
    Results for Tel Aviv, Israel-based company translated at
rate of one dlr to 1.485 new Israeli shekels.
 Reuter
