FAIRMOUNT CHEMICAL CO INC <FMTC> 4TH QTR LOSS
NEWARK, N.J., March 5 -
Shr loss 28 cts vs loss 29 cts
    Net loss 584,100 vs loss 459,500
    Sales 1,339,800 vs 1,6390,800
    Year
    Shr loss 64 cts vs loss 79 cts
    Net loss 1,314,700 vs loss 1,237,100
    Sales 7,249,600 vs 6,311,500
 Reuter
