CARVER CORP <CAVR> 4TH QTR NET
LYNNWOOD, Wash., March 5 -
Shr 20 cts vs 17 cts
    Net 680,000 vs 533,000
    Sales 6,473,000 vs 5,996,000
    Year
    Shr 57 cts vs 84 cts
    Net 1,967,000 vs 2,099,000
    Sales 20.8 mln vs 19.0 mln
 Reuter
