<NEWSCOPE RESOURCES LTD> YEAR LOSS
CALGARY, ALBERTA, March 5 -
Shr loss 94 cts vs profit 28 cts
    Net loss 6,319,337 vs profit 1,702,016
    Revs 2,899,513 vs 5,239,106
    Note: 1986 net includes 5,250,000 dlr writedown of oil and
gas properties.
 Reuter
