BIOMEDICAL DYNAMICS CORP <BMDC> 4TH QTR NET
MINNEAPOLIS, March 5 -
Shr profit one ct vs loss two cts
    Net profit 52,405 vs loss 67,967
    Sales 289,572 vs 188,713
    Year
    Shr loss one cts vs loss five cts
    Net loss 51,019 vs loss 201,680
    Sales 1.1 mln vs 490,935
 Reuter
