SIZZLER RESTAURANTS INTERNATIONAL INC <SIZZ> NET
LOS ANGELES, March 6 -
Shr 15 cts vs 14 cts
    Net 2,547,000 vs 2,242,000
    Revs 56.7 mln vs 44.0 mln
    Avg shrs 17.6 mln vs 15.6 mln
    Nine mths
    Shr 54 cts vs 54 cts
    Net 9,249,000 vs 8,334,000
    Revs 173.3 mln vs 134.3 mln
    Avg shrs 17.1 mln vs 15.5 mln
 Reuter
