<M-CORP INC> YEAR DEC 28 NET
MONTREAL, March 6 -
Shr 73 cts vs 55 cts
    Net 1,691,878 vs 1,117,747
    Revs 7.1 mln vs 4.9 mln
    Avg shrs 2.3 mln vs 2.0 mln
    NOTE: Share results reflect two-for-one stock split in
June, 1986.
 Reuter
