SELECTERM INC <SLTM> 4TH QTR LOSS
DANVERS, Mass., March 6 -
Shr loss not given vs profit 16 cts
    Net loss 309,000 vs profit 426,000
    Revs 6,358,000 vs 6,747,000
    Year
    Shr profit 27 cts vs profit 76 cts
    Net profit 713,000 vs profit 2,021,000
    Revs 24.9 mln vs 27.1 mln
    NOTE: Pretax net profits 113,000 dlrs vs 824,000 dlrs in
quarter and 1,863,000 dlrs vs 3,606,000 dlrs in year.
 Reuter
