BIOTECH RESEARCH LABORATORIES INC <BTRL> 4TH QTR
ROCKVILLE, Md, - March 6 -
Shr profit one ct vs loss seven cts
    Net profit 63,761 vs loss 43,006
    Revs 1,961,219 vs 1,413,859
    Year
    Shr loss seven cts vs loss 20 cts
    Net loss 380,273 vs loss 1,108,151
    Revs 6,245,012 vs 5,368,522
    Shr out 5,950,000 vs 5,462,547
 Reuter
