ARUNDEL CORP <ARL> 4TH QTR NET
BALTIMORE, March 6 -
Shr 1.73 dlrs vs 1.66 dlrs
    Net 3,637,000 vs 3,789,000
    Revs 27.6 mln vs 26.6 mln
    Year
    Shr 3.47 dlrs vs 2.34 dlrs
    Net 7,815,000 vs 5,340,000
    Revs 94.3 mln vs 81.9 mln
 Reuter
