COMPUTER MEMORIES INC <CMIN> 3RD QTR LOSS
CHATSWORTH, Calif., March 6 -
Period ended December 31.
    Shr loss nine cts vs loss 1.92 dlrs
    Net loss 950,000 vs loss 21,334,000
    Revs 580,000 vs 22.2 mln
    Nine Mths
    Shr loss six cts vs loss 1.23 dlrs
    Net loss 694,000 vs loss 13,710,000
    Revs 5,129,000 vs 111.9 mln
    Note: Current qtr includes tax loss of 118,000 vs loss of
476,000 dlrs.
 Reuter
