PATRICK PETROLEUM CO <PPC> YEAR LOSS
JACKSON, Mich., March 6 -
Shr loss 1.22 dlrs vs profit 27 cts
    Net loss 8,812,432 vs profit 1,847,560
    Revs 7,981,198 vs 10.3 mln
    Avg shrs 7,187,941 vs 6,828,368
    NOTE: Current year includes tax credit of 800,000 dlrs.
 Reuter
