ESQUIRE RADIO AND ELECTRONICS INC <EE> 4TH QTR
NEW YORK, Feb 26 -
Shr profit 15 cts vs profit four cts
    Annual div 72 cts vs 72 cts prior yr
    Net profit 72,000 vs profit 16,000
    Revs 7,075,000 vs 2,330,000
    12 mths
    Shr profit 42 cts vs loss 11 cts
    Net profit 203,000 vs loss 55,000
    Revs 16.1 mln vs 3,971,000
    NOTE: annual dividend payable April 10, 1987, to
stockholders of record on March 27, 1987.
 Reuter
