S-K-I LTD <SKII> 2ND QTR JAN 25 NET
KILLINGTON, Vt., March 2 -
Shr 81 cts vs 57 cts
    Net 3,660,273 vs 2,437,914
    Rev 28.5 mln vs 23.1 mln
    Six months
    Shr 29 cts vs 12 cts
    Net 1,325,755 vs 483,559
    Rev 31.7 mln vs 26.4 mln
 Reuter
