KAPOK CORP <KPK> YEAR SEPT 30 LOSS
CLEARWATER, Fla., March 2 -
Shr loss 20 cts vs profit 96 cts
    Net loss 499,000 vs profit 2,369,000
    Revs 11.5 mln vs 10.3 mln
    NOTE: Prior year net includes gain on sale of property of
4,557,000 dlrs.
 Reuter
