\relax 
\@writefile{toc}{\contentsline {section}{\numberline {1}Introduction}{2}\protected@file@percent }
\@writefile{toc}{\contentsline {section}{\numberline {2}Face recognition}{2}\protected@file@percent }
\@writefile{toc}{\contentsline {subsection}{\numberline {2.1}Dataset}{2}\protected@file@percent }
\@writefile{lof}{\contentsline {figure}{\numberline {1}{\ignorespaces Example of the detected face in our dataset.}}{2}\protected@file@percent }
\newlabel{detected_face}{{1}{2}}
\@writefile{toc}{\contentsline {subsection}{\numberline {2.2}Recognition}{3}\protected@file@percent }
\@writefile{lof}{\contentsline {figure}{\numberline {2}{\ignorespaces Visualization of validation feature vectors with t-SNE (Stochastic Neighbor Embedding)}}{3}\protected@file@percent }
\newlabel{tsne}{{2}{3}}
\newlabel{table:pregledCen}{{2.2}{4}}
\@writefile{lot}{\contentsline {table}{\numberline {1}{\ignorespaces Average prediction probability of the validation set.}}{4}\protected@file@percent }
\@writefile{toc}{\contentsline {section}{\numberline {3}Hair color recognition}{4}\protected@file@percent }
\@writefile{toc}{\contentsline {subsection}{\numberline {3.1}Dataset}{4}\protected@file@percent }
\@writefile{lof}{\contentsline {figure}{\numberline {3}{\ignorespaces Example of cropped image in our dataset.}}{5}\protected@file@percent }
\newlabel{haircolor}{{3}{5}}
\@writefile{toc}{\contentsline {subsection}{\numberline {3.2}Recognition}{5}\protected@file@percent }
\@writefile{lof}{\contentsline {figure}{\numberline {4}{\ignorespaces Hair color confusion matrix.}}{5}\protected@file@percent }
\newlabel{color_matrix}{{4}{5}}
\@setckpt{poglavje1}{
\setcounter{page}{7}
\setcounter{equation}{0}
\setcounter{enumi}{0}
\setcounter{enumii}{0}
\setcounter{enumiii}{0}
\setcounter{enumiv}{0}
\setcounter{footnote}{0}
\setcounter{mpfootnote}{0}
\setcounter{part}{0}
\setcounter{section}{3}
\setcounter{subsection}{2}
\setcounter{subsubsection}{0}
\setcounter{paragraph}{0}
\setcounter{subparagraph}{0}
\setcounter{figure}{4}
\setcounter{table}{1}
\setcounter{parentequation}{0}
\setcounter{lstnumber}{1}
\setcounter{float@type}{8}
\setcounter{definicija}{0}
\setcounter{zgled}{0}
\setcounter{lstlisting}{0}
}
