Izvajanje test-B
  Log datoteka: test-B.log
  Izhod programa: test-B.out
  Ukazna vrstica: ./Naloga2 pids /home/test/tests/proc-test
  Izhodni status: 0
  Realni cas izvajanja: 10
  Uporabniski cas izvajanja: 1
  Sistemski cas izvajanja: 9
  Procesorski cas izvajanja: 10
Preverjanje test-B
  Izhodni status: ok
  Standardni izhod: err
  Tocke: 0
