Izvajanje test-B
  Log datoteka: test-B.log
  Izhod programa: test-B.out
  Ukazna vrstica: ./Naloga2 pids /home/test/tests/proc-test
  Izhodni status: 1
  Realni cas izvajanja: 4
  Uporabniski cas izvajanja: 1
  Sistemski cas izvajanja: 4
  Procesorski cas izvajanja: 5
Preverjanje test-B
  Izhodni status: err
  Tocke: 0
