Izvajanje test-B
  Log datoteka: test-B.log
  Izhod programa: test-B.out
  Ukazna vrstica: bash Naloga1.sh leto 400 500 1000 1234 2000 2012 2014 2016 2040 2050 2100 2345 2400 2800
  Izhodni status: 0
  Realni cas izvajanja: 9
  Uporabniski cas izvajanja: 4
  Sistemski cas izvajanja: 5
  Procesorski cas izvajanja: 9
Preverjanje test-B
  Izhodni status: ok
  Standardni izhod: ok
  Tocke: 1
