\relax 
\@writefile{toc}{\contentsline {chapter}{\numberline {1}Analiza zmogljivosti oblačnega ponudnika Azure (T. "Sabanov, M. Resman)}{1}\protected@file@percent }
\@writefile{lof}{\addvspace {10\p@ }}
\@writefile{lot}{\addvspace {10\p@ }}
\@writefile{toc}{\contentsline {section}{\numberline {1.1}Uvod}{1}\protected@file@percent }
\citation{1_spec}
\citation{1_cloudspectator}
\@writefile{lof}{\contentsline {figure}{\numberline {1.1}{\ignorespaces Pogled na povezavo med oblačno storitvijo in klienti.}}{2}\protected@file@percent }
\newlabel{tabela:1_Azure}{{1.1}{2}}
\@writefile{toc}{\contentsline {section}{\numberline {1.2}Osnove oblačnih Benchmark programov}{2}\protected@file@percent }
\@writefile{toc}{\contentsline {subsection}{\numberline {1.2.1}SPEC Cloud IaaS 2018}{2}\protected@file@percent }
\citation{1_geekbench3}
\citation{1_fio}
\citation{1_ioping}
\citation{1_publiccb}
\@writefile{toc}{\contentsline {subsection}{\numberline {1.2.2}Cloud Spectator}{3}\protected@file@percent }
\@writefile{toc}{\contentsline {subsection}{\numberline {1.2.3}Geekbench 3}{3}\protected@file@percent }
\@writefile{toc}{\contentsline {subsection}{\numberline {1.2.4}Fio}{3}\protected@file@percent }
\@writefile{toc}{\contentsline {subsection}{\numberline {1.2.5}IOPing}{3}\protected@file@percent }
\@writefile{toc}{\contentsline {subsection}{\numberline {1.2.6}Public Cloud Benchmark}{3}\protected@file@percent }
\@writefile{toc}{\contentsline {subsection}{\numberline {1.2.7}Cloud Performance Benchmark}{3}\protected@file@percent }
\citation{1_cloudperformancebenchmark}
\citation{1_perfkit}
\@writefile{toc}{\contentsline {subsection}{\numberline {1.2.8}PerfKit Benchmarker}{4}\protected@file@percent }
\@writefile{toc}{\contentsline {section}{\numberline {1.3}Povzetek orodij}{4}\protected@file@percent }
\newlabel{1_pregledCenOrodij}{{1.3}{4}}
\@writefile{lot}{\contentsline {table}{\numberline {1.1}{\ignorespaces Pregled cen orodij.}}{5}\protected@file@percent }
\@writefile{toc}{\contentsline {section}{\numberline {1.4}Implementacija merilnega okolja}{5}\protected@file@percent }
\@writefile{toc}{\contentsline {section}{\numberline {1.5}Rezultati zmogljivosti omrežja}{5}\protected@file@percent }
\@writefile{lot}{\contentsline {table}{\numberline {1.2}{\ignorespaces Uporabljeni benchmarki za zmogljivost omrežja.}}{5}\protected@file@percent }
\newlabel{table:1_zmogljivost_omrezja}{{1.2}{5}}
\@writefile{toc}{\contentsline {subsection}{\numberline {1.5.1}Opis povezav}{5}\protected@file@percent }
\@writefile{toc}{\contentsline {subsection}{\numberline {1.5.2}Ping}{6}\protected@file@percent }
\@writefile{lot}{\contentsline {table}{\numberline {1.3}{\ignorespaces Latenca med Azure instancami.}}{6}\protected@file@percent }
\newlabel{table:1_ping_latency_europe}{{1.3}{6}}
\@writefile{lot}{\contentsline {table}{\numberline {1.4}{\ignorespaces Latenca med lokalnim računalnikom in Azure instanco.}}{6}\protected@file@percent }
\newlabel{table:1_ping_latency_home}{{1.4}{6}}
\@writefile{lof}{\contentsline {figure}{\numberline {1.2}{\ignorespaces Ping skozi dan.}}{6}\protected@file@percent }
\newlabel{1_ping_martin_tom}{{1.2}{6}}
\@writefile{toc}{\contentsline {subsection}{\numberline {1.5.3}Traceroute}{7}\protected@file@percent }
\@writefile{lof}{\contentsline {figure}{\numberline {1.3}{\ignorespaces Traceroute do Azure instance.}}{7}\protected@file@percent }
\newlabel{1_traceroute_result}{{1.3}{7}}
\@writefile{toc}{\contentsline {subsection}{\numberline {1.5.4}Speedtest}{7}\protected@file@percent }
\@writefile{toc}{\contentsline {subsection}{\numberline {1.5.5}Iperf}{7}\protected@file@percent }
\@writefile{toc}{\contentsline {subsection}{\numberline {1.5.6}Testiranje strežnika z vzporednimi klienti}{8}\protected@file@percent }
\@writefile{lof}{\contentsline {figure}{\numberline {1.4}{\ignorespaces Povprečni čas prenosa posamezne datoteke pri večih vzporednih povezavah.}}{8}\protected@file@percent }
\newlabel{table:1_parallelClient}{{1.4}{8}}
\@writefile{toc}{\contentsline {section}{\numberline {1.6}Rezultati zmogljivosti procesorja}{8}\protected@file@percent }
\@writefile{lot}{\contentsline {table}{\numberline {1.5}{\ignorespaces Uporabljeni benchmarki za zmogljivost procesorja.}}{8}\protected@file@percent }
\newlabel{table:1_cpu_benchmarks}{{1.5}{8}}
\@writefile{toc}{\contentsline {subsection}{\numberline {1.6.1}Coremark}{8}\protected@file@percent }
\@writefile{toc}{\contentsline {subsection}{\numberline {1.6.2}Copy throughput}{9}\protected@file@percent }
\@writefile{toc}{\contentsline {subsection}{\numberline {1.6.3}Iskanje praštevil v intervalu}{9}\protected@file@percent }
\@writefile{lof}{\contentsline {figure}{\numberline {1.5}{\ignorespaces Testni program za testiranje zmogljivosti procesorja.}}{9}\protected@file@percent }
\newlabel{1_cpuCode}{{1.5}{9}}
\@writefile{lof}{\contentsline {figure}{\numberline {1.6}{\ignorespaces Čas izvajanja testnega progama na različnih sistemih.}}{10}\protected@file@percent }
\newlabel{table:1_cpuTest}{{1.6}{10}}
\@writefile{lot}{\contentsline {table}{\numberline {1.6}{\ignorespaces Spremenljivke, ki smo jih spreminjali iz integer v float format.}}{10}\protected@file@percent }
\newlabel{table:1_cpuVariables}{{1.6}{10}}
\@writefile{toc}{\contentsline {section}{\numberline {1.7}Rezultati zmogljivosti vhodno/izhodnih naprav}{10}\protected@file@percent }
\@writefile{toc}{\contentsline {subsection}{\numberline {1.7.1}Fio}{10}\protected@file@percent }
\@writefile{lot}{\contentsline {table}{\numberline {1.7}{\ignorespaces Uporabljeni benchmarki za zmogljivost vhodno/izhodnih naprav.}}{11}\protected@file@percent }
\newlabel{table:1_io_benchmarks}{{1.7}{11}}
\@writefile{lot}{\contentsline {table}{\numberline {1.8}{\ignorespaces Sekvenčno pisanje.}}{11}\protected@file@percent }
\newlabel{table:1_fio_sequent_read}{{1.8}{11}}
\@writefile{lot}{\contentsline {table}{\numberline {1.9}{\ignorespaces Sekvenčno branje.}}{11}\protected@file@percent }
\newlabel{table:1_fio_sequent_write}{{1.9}{11}}
\@writefile{lot}{\contentsline {table}{\numberline {1.10}{\ignorespaces Naključno branje.}}{11}\protected@file@percent }
\newlabel{table:1_fio_random_read}{{1.10}{11}}
\@writefile{lot}{\contentsline {table}{\numberline {1.11}{\ignorespaces Naključno pisanje.}}{11}\protected@file@percent }
\newlabel{table:1_fio_random_write}{{1.11}{11}}
\@writefile{lot}{\contentsline {table}{\numberline {1.12}{\ignorespaces Naključno paralelno branje.}}{11}\protected@file@percent }
\newlabel{table:1_fio_random_parallel}{{1.12}{11}}
\@writefile{toc}{\contentsline {subsection}{\numberline {1.7.2}Testiranje zmogljivosti diska z vzporednimi klienti}{11}\protected@file@percent }
\@writefile{lof}{\contentsline {figure}{\numberline {1.7}{\ignorespaces Povprečni čas nalaganja posamezne datoteke pri večih vzporednih prenosov datoteke.}}{12}\protected@file@percent }
\newlabel{table:1_parallelWrite}{{1.7}{12}}
\@writefile{toc}{\contentsline {subsection}{\numberline {1.7.3}Merilci resursov}{12}\protected@file@percent }
\@writefile{lof}{\contentsline {figure}{\numberline {1.8}{\ignorespaces Število bralnih in pisalnih operacij na disk na sekundo.}}{12}\protected@file@percent }
\newlabel{table:1_numOfDiskOpPerSec}{{1.8}{12}}
\@writefile{lof}{\contentsline {figure}{\numberline {1.9}{\ignorespaces Velikost podatkov pri zapisovanju med testiranjem.}}{13}\protected@file@percent }
\newlabel{table:1_bytesWritten}{{1.9}{13}}
\@writefile{lof}{\contentsline {figure}{\numberline {1.10}{\ignorespaces Zasedenost procesorja pri izvajanju programa iskanje praštevil v integer obliki.}}{13}\protected@file@percent }
\newlabel{table:1_cpuInt}{{1.10}{13}}
\@writefile{lof}{\contentsline {figure}{\numberline {1.11}{\ignorespaces Zasedenost procesorja pri izvajanju programa iskanje praštevil v float obliki.}}{14}\protected@file@percent }
\newlabel{table:1_cpuFloat}{{1.11}{14}}
\@writefile{lof}{\contentsline {figure}{\numberline {1.12}{\ignorespaces Zasedenost pomnilnika med izvajanjem iskanja praštevil s spremenljivkami tipa int.}}{14}\protected@file@percent }
\newlabel{1_test_memory_int}{{1.12}{14}}
\citation{1_stress}
\citation{1_nosql_tests}
\@writefile{lof}{\contentsline {figure}{\numberline {1.13}{\ignorespaces Zasedenost pomnilnika med izvajanjem iskanja praštevil s spremenljivkami tipa float.}}{15}\protected@file@percent }
\newlabel{1_test_memory_float}{{1.13}{15}}
\@writefile{toc}{\contentsline {section}{\numberline {1.8}Ekstremna obremenitev sistemskih resursov platforme}{15}\protected@file@percent }
\@writefile{toc}{\contentsline {subsection}{\numberline {1.8.1}Maksimalna obremenjenost pomnilnika}{15}\protected@file@percent }
\@writefile{toc}{\contentsline {subsection}{\numberline {1.8.2}Maksimalna zasedenost diska}{15}\protected@file@percent }
\@writefile{toc}{\contentsline {section}{\numberline {1.9}Testiranje zmogljivosti podatkovnih baz MongoDB in PostgreSQL}{15}\protected@file@percent }
\@writefile{lof}{\contentsline {figure}{\numberline {1.14}{\ignorespaces Potreben čas za branje 100.000 JSON dokumentov iz baz.}}{16}\protected@file@percent }
\newlabel{1_read_db}{{1.14}{16}}
\@writefile{lof}{\contentsline {figure}{\numberline {1.15}{\ignorespaces Potreben čas za pisanje 100.000 JSON dokumentov v bazi.}}{16}\protected@file@percent }
\newlabel{1_write_db}{{1.15}{16}}
\@writefile{toc}{\contentsline {section}{\numberline {1.10}Zaključek}{16}\protected@file@percent }
\@setckpt{poglavje1}{
\setcounter{page}{18}
\setcounter{equation}{0}
\setcounter{enumi}{0}
\setcounter{enumii}{0}
\setcounter{enumiii}{0}
\setcounter{enumiv}{0}
\setcounter{footnote}{0}
\setcounter{mpfootnote}{0}
\setcounter{part}{0}
\setcounter{chapter}{1}
\setcounter{section}{10}
\setcounter{subsection}{0}
\setcounter{subsubsection}{0}
\setcounter{paragraph}{0}
\setcounter{subparagraph}{0}
\setcounter{figure}{15}
\setcounter{table}{12}
\setcounter{parentequation}{0}
\setcounter{lstnumber}{1}
\setcounter{float@type}{8}
\setcounter{definicija}{0}
\setcounter{zgled}{0}
\setcounter{lstlisting}{0}
}
