{"metric": "cp throughput", "value": 14.83605607693199, "unit": "MB/sec", "timestamp": 1584899678.6239295, "test": "copy_throughput", "product_name": "PerfKitBenchmarker", "official": false, "owner": "tom", "run_uri": "2f276542-e44ba757-685b-4221-ad54-bb305be847b8", "sample_uri": "1f350b05-6137-4a86-a805-1ffcdfdc39cc", "labels": "|/dev/sda:32213303296|,|/dev/sdb:17179869184|,|/dev/sdc:536870912000|,|/dev/sdd:536870912000|,|accelerated_networking:False|,|boot_disk_size:default|,|boot_disk_type:Standard_LRS|,|cloud:Azure|,|copy_benchmark_single_file_mb:None|,|data_disk_0_fstab_options:defaults|,|data_disk_0_host_caching:None|,|data_disk_0_media:hdd|,|data_disk_0_mount_options:discard|,|data_disk_0_num_stripes:1|,|data_disk_0_replication:zone|,|data_disk_0_size:500|,|data_disk_0_type:Standard_LRS|,|data_disk_count:2|,|dedicated_host:False|,|disk_filesystem_blocksize:4096|,|disk_filesystem_type:ext4|,|image:Canonical:UbuntuServer:16.04-LTS:latest|,|kernel_release:4.15.0-1071-azure|,|machine_type:Standard_B2ms|,|num_cpus:2|,|numa_node_count:1|,|os_info:Ubuntu 16.04.6 LTS|,|os_type:ubuntu1604|,|perfkitbenchmarker_version:v1.12.0-1738-g9639059b|,|placement_group_strategy:None|,|preemptible:False|,|run_number:0|,|tcp_congestion_control:cubic|,|vm_count:1|,|zone:westeurope|"}
{"metric": "lscpu", "value": 0, "unit": "", "timestamp": 1584899678.624134, "test": "copy_throughput", "product_name": "PerfKitBenchmarker", "official": false, "owner": "tom", "run_uri": "2f276542-e44ba757-685b-4221-ad54-bb305be847b8", "sample_uri": "03d14da2-3170-4a67-9635-d2893bdc0879", "labels": "|/dev/sda:32213303296|,|/dev/sdb:17179869184|,|/dev/sdc:536870912000|,|/dev/sdd:536870912000|,|Architecture:x86_64|,|BogoMIPS:4589.36|,|Byte Order:Little Endian|,|CPU MHz:2294.682|,|CPU family:6|,|CPU op-mode(s):32-bit, 64-bit|,|CPU(s):2|,|Core(s) per socket:2|,|Flags:fpu vme de pse tsc msr pae mce cx8 apic sep mtrr pge mca cmov pat pse36 clflush mmx fxsr sse sse2 ss ht syscall nx pdpe1gb rdtscp lm constant_tsc rep_good nopl xtopology cpuid pni pclmulqdq ssse3 fma cx16 pcid sse4_1 sse4_2 movbe popcnt aes xsave avx f16c rdrand hypervisor lahf_lm abm 3dnowprefetch invpcid_single pti fsgsbase bmi1 hle avx2 smep bmi2 erms invpcid rtm rdseed adx smap xsaveopt md_clear|,|Hypervisor vendor:Microsoft|,|L1d cache:32K|,|L1i cache:32K|,|L2 cache:256K|,|L3 cache:51200K|,|Model:79|,|Model name:Intel(R) Xeon(R) CPU E5-2673 v4 @ 2.30GHz|,|NUMA node(s):1|,|NUMA node0 CPU(s):0,1|,|On-line CPU(s) list:0,1|,|Socket(s):1|,|Stepping:1|,|Thread(s) per core:1|,|Vendor ID:GenuineIntel|,|Virtualization type:full|,|accelerated_networking:False|,|boot_disk_size:default|,|boot_disk_type:Standard_LRS|,|cloud:Azure|,|data_disk_0_fstab_options:defaults|,|data_disk_0_host_caching:None|,|data_disk_0_media:hdd|,|data_disk_0_mount_options:discard|,|data_disk_0_num_stripes:1|,|data_disk_0_replication:zone|,|data_disk_0_size:500|,|data_disk_0_type:Standard_LRS|,|data_disk_count:2|,|dedicated_host:False|,|disk_filesystem_blocksize:4096|,|disk_filesystem_type:ext4|,|image:Canonical:UbuntuServer:16.04-LTS:latest|,|kernel_release:4.15.0-1071-azure|,|machine_type:Standard_B2ms|,|node_name:pkb-2f276542-0|,|num_cpus:2|,|numa_node_count:1|,|os_info:Ubuntu 16.04.6 LTS|,|os_type:ubuntu1604|,|perfkitbenchmarker_version:v1.12.0-1738-g9639059b|,|placement_group_strategy:None|,|preemptible:False|,|tcp_congestion_control:cubic|,|vm_count:1|,|zone:westeurope|"}
{"metric": "proccpu", "value": 0, "unit": "", "timestamp": 1584899678.7027376, "test": "copy_throughput", "product_name": "PerfKitBenchmarker", "official": false, "owner": "tom", "run_uri": "2f276542-e44ba757-685b-4221-ad54-bb305be847b8", "sample_uri": "f16b3883-9524-4926-904a-47497d3f429f", "labels": "|/dev/sda:32213303296|,|/dev/sdb:17179869184|,|/dev/sdc:536870912000|,|/dev/sdd:536870912000|,|accelerated_networking:False|,|address sizes:44 bits physical, 48 bits virtual|,|bogomips:4589.36|,|boot_disk_size:default|,|boot_disk_type:Standard_LRS|,|bugs:cpu_meltdown itlb_multihit l1tf mds spec_store_bypass spectre_v1 spectre_v2 swapgs taa|,|cache size:51200 KB|,|cache_alignment:64|,|clflush size:64|,|cloud:Azure|,|cpu MHz:2294.682|,|cpu cores:2|,|cpu family:6|,|cpuid level:20|,|data_disk_0_fstab_options:defaults|,|data_disk_0_host_caching:None|,|data_disk_0_media:hdd|,|data_disk_0_mount_options:discard|,|data_disk_0_num_stripes:1|,|data_disk_0_replication:zone|,|data_disk_0_size:500|,|data_disk_0_type:Standard_LRS|,|data_disk_count:2|,|dedicated_host:False|,|disk_filesystem_blocksize:4096|,|disk_filesystem_type:ext4|,|flags:3dnowprefetch abm adx aes apic avx avx2 bmi1 bmi2 clflush cmov constant_tsc cpuid cx16 cx8 de erms f16c fma fpu fsgsbase fxsr hle ht hypervisor invpcid invpcid_single lahf_lm lm mca mce md_clear mmx movbe msr mtrr nopl nx pae pat pcid pclmulqdq pdpe1gb pge pni popcnt pse pse36 pti rdrand rdseed rdtscp rep_good rtm sep smap smep ss sse sse2 sse4_1 sse4_2 ssse3 syscall tsc vme xsave xsaveopt xtopology|,|fpu:yes|,|fpu_exception:yes|,|image:Canonical:UbuntuServer:16.04-LTS:latest|,|kernel_release:4.15.0-1071-azure|,|machine_type:Standard_B2ms|,|microcode:0xffffffff|,|model:79|,|model name:Intel(R) Xeon(R) CPU E5-2673 v4 @ 2.30GHz|,|node_name:pkb-2f276542-0|,|num_cpus:2|,|numa_node_count:1|,|os_info:Ubuntu 16.04.6 LTS|,|os_type:ubuntu1604|,|perfkitbenchmarker_version:v1.12.0-1738-g9639059b|,|placement_group_strategy:None|,|power management:|,|preemptible:False|,|proccpu:address sizes,bogomips,bugs,cache size,cache_alignment,clflush size,cpu MHz,cpu cores,cpu family,cpuid level,flags,fpu,fpu_exception,microcode,model,model name,power management,siblings,stepping,vendor_id,wp|,|siblings:2|,|stepping:1|,|tcp_congestion_control:cubic|,|vendor_id:GenuineIntel|,|vm_count:1|,|wp:yes|,|zone:westeurope|"}
{"metric": "proccpu_mapping", "value": 0, "unit": "", "timestamp": 1584899678.7028172, "test": "copy_throughput", "product_name": "PerfKitBenchmarker", "official": false, "owner": "tom", "run_uri": "2f276542-e44ba757-685b-4221-ad54-bb305be847b8", "sample_uri": "115eb65f-6ddd-45c0-842c-9870a060223f", "labels": "|/dev/sda:32213303296|,|/dev/sdb:17179869184|,|/dev/sdc:536870912000|,|/dev/sdd:536870912000|,|accelerated_networking:False|,|boot_disk_size:default|,|boot_disk_type:Standard_LRS|,|cloud:Azure|,|data_disk_0_fstab_options:defaults|,|data_disk_0_host_caching:None|,|data_disk_0_media:hdd|,|data_disk_0_mount_options:discard|,|data_disk_0_num_stripes:1|,|data_disk_0_replication:zone|,|data_disk_0_size:500|,|data_disk_0_type:Standard_LRS|,|data_disk_count:2|,|dedicated_host:False|,|disk_filesystem_blocksize:4096|,|disk_filesystem_type:ext4|,|image:Canonical:UbuntuServer:16.04-LTS:latest|,|kernel_release:4.15.0-1071-azure|,|machine_type:Standard_B2ms|,|node_name:pkb-2f276542-0|,|num_cpus:2|,|numa_node_count:1|,|os_info:Ubuntu 16.04.6 LTS|,|os_type:ubuntu1604|,|perfkitbenchmarker_version:v1.12.0-1738-g9639059b|,|placement_group_strategy:None|,|preemptible:False|,|proc_0:apicid=0;core id=0;initial apicid=0;physical id=0|,|proc_1:apicid=1;core id=1;initial apicid=1;physical id=0|,|tcp_congestion_control:cubic|,|vm_count:1|,|zone:westeurope|"}
{"metric": "End to End Runtime", "value": 1621.9107625484467, "unit": "seconds", "timestamp": 1584900162.056501, "test": "copy_throughput", "product_name": "PerfKitBenchmarker", "official": false, "owner": "tom", "run_uri": "2f276542-e44ba757-685b-4221-ad54-bb305be847b8", "sample_uri": "a4e33a9c-f3d0-4077-bcb2-56c42c8fceed", "labels": "|/dev/sda:32213303296|,|/dev/sdb:17179869184|,|/dev/sdc:536870912000|,|/dev/sdd:536870912000|,|accelerated_networking:False|,|boot_disk_size:default|,|boot_disk_type:Standard_LRS|,|cloud:Azure|,|data_disk_0_fstab_options:defaults|,|data_disk_0_host_caching:None|,|data_disk_0_media:hdd|,|data_disk_0_mount_options:discard|,|data_disk_0_num_stripes:1|,|data_disk_0_replication:zone|,|data_disk_0_size:500|,|data_disk_0_type:Standard_LRS|,|data_disk_count:2|,|dedicated_host:False|,|disk_filesystem_blocksize:4096|,|disk_filesystem_type:ext4|,|image:Canonical:UbuntuServer:16.04-LTS:latest|,|kernel_release:4.15.0-1071-azure|,|machine_type:Standard_B2ms|,|num_cpus:2|,|numa_node_count:1|,|os_info:Ubuntu 16.04.6 LTS|,|os_type:ubuntu1604|,|perfkitbenchmarker_version:v1.12.0-1738-g9639059b|,|placement_group_strategy:None|,|preemptible:False|,|tcp_congestion_control:cubic|,|vm_count:1|,|zone:westeurope|"}
