Izvajanje test-A
  Log datoteka: test-A.log
  Izhod programa: test-A.out
  Ukazna vrstica: ./Naloga2 sys /home/test/tests/proc-test
  Izhodni status: 1
  Realni cas izvajanja: 5
  Uporabniski cas izvajanja: 1
  Sistemski cas izvajanja: 4
  Procesorski cas izvajanja: 5
Preverjanje test-A
  Izhodni status: err
  Tocke: 0
