Izvajanje test-E
  Log datoteka: test-E.log
  Izhod programa: test-E.out
  Ukazna vrstica: ./Naloga2 ps /home/test/tests/proc-test 24147
  Izhodni status: 0
  Realni cas izvajanja: 4
  Uporabniski cas izvajanja: 1
  Sistemski cas izvajanja: 3
  Procesorski cas izvajanja: 4
Preverjanje test-E
  Izhodni status: ok
  Standardni izhod: err
  Tocke: 0
