Izvajanje test-B
  Log datoteka: test-B.log
  Izhod programa: test-B.out
  Ukazna vrstica: ./Naloga2 pids /home/test/tests/proc-test
  Izhodni status: 0
  Realni cas izvajanja: 5
  Uporabniski cas izvajanja: 3
  Sistemski cas izvajanja: 3
  Procesorski cas izvajanja: 6
Preverjanje test-B
  Izhodni status: ok
  Standardni izhod: ok
  Tocke: 1
